<?xml version="1.0" encoding="UTF-8" standalone="no"?>
<!-- Created with Inkscape (http://www.inkscape.org/) -->

<svg
   xmlns:dc="http://purl.org/dc/elements/1.1/"
   xmlns:cc="http://creativecommons.org/ns#"
   xmlns:rdf="http://www.w3.org/1999/02/22-rdf-syntax-ns#"
   xmlns:svg="http://www.w3.org/2000/svg"
   xmlns="http://www.w3.org/2000/svg"
   xmlns:xlink="http://www.w3.org/1999/xlink"
   xmlns:sodipodi="http://sodipodi.sourceforge.net/DTD/sodipodi-0.dtd"
   xmlns:inkscape="http://www.inkscape.org/namespaces/inkscape"
   version="1.1"
   id="svg2"
   width="259.19998"
   height="81.359993"
   viewBox="0 0 259.19999 81.359993"
   sodipodi:docname="ADMLib.svg"
   inkscape:version="0.92.4 (5da689c313, 2019-01-14)">
  <metadata
     id="metadata8">
    <rdf:RDF>
      <cc:Work
         rdf:about="">
        <dc:format>image/svg+xml</dc:format>
        <dc:type
           rdf:resource="http://purl.org/dc/dcmitype/StillImage" />
        <dc:title />
      </cc:Work>
    </rdf:RDF>
  </metadata>
  <defs
     id="defs6" />
  <sodipodi:namedview
     pagecolor="#ffffff"
     bordercolor="#666666"
     borderopacity="1"
     objecttolerance="10"
     gridtolerance="10"
     guidetolerance="10"
     inkscape:pageopacity="0"
     inkscape:pageshadow="2"
     inkscape:window-width="1439"
     inkscape:window-height="759"
     id="namedview4"
     showgrid="false"
     inkscape:zoom="2.0806636"
     inkscape:cx="-73.312209"
     inkscape:cy="41.160609"
     inkscape:window-x="0"
     inkscape:window-y="27"
     inkscape:window-maximized="0"
     inkscape:current-layer="svg2" />
  <image
     width="259.19998"
     height="81.359993"
     preserveAspectRatio="none"
     xlink:href="data:image/png;base64,iVBORw0KGgoAAAANSUhEUgAAAWgAAABxCAYAAAD4SzkyAAATk3pUWHRSYXcgcHJvZmlsZSB0eXBl IGV4aWYAAHjarZpZkls7kkT/sYpeAqbAsByMZr2DXn4fBynpSa+6rMq6kspM5uUlhggPdw9Q7vzP f1/3X3zl2rPLVlvppXi+cs89Dp40//ka72fw+f18X6V9n4Xfr7v6feIjlxK/0+fPVr7XD9cj98fv 9fX5HQbX7S8D9fN9Yf7+wvgOFNt3gl8Tvq8UPhP478BufAdK8Ttz/vw9x3crvdW/bmF977/f118Y +Hb6kVONxUqomZ85+lpL53mLPlfitrXQuH7G5rOwP/52P26NrCmeFJLnZ9MK0+d78B34yfOoZ+k9 15Ws+zQQ2YrOV573H3H951//bOXux9K/Kf8tpT+f/ZFq83/PtHsB/XFL+iND5efvf3g92K/r7jvA j/njb+Ar32fx9+v5hPDbnn9kTd/37nbv+exu5MKWy3dTP7b4nnHfVLTeuwqPyrf5pmDr0Xk0SmKB ow3IJo8Veoik8YYcdhjhhvN+r7BYYo4nVn7HuEjiclxsJKPH9dKc9Qg31tTTTo1EL+CQuBp/riW8 afubboXGxDs0B3oCgwXe8v96uH/lpntVUAS4vdSHT36jKo1VKHMhOB+4jYyE+w2qvQD/ePz5pbwm MmgvzI0NDj81AumfFn6BK71EJ240fn8KONT9HYAQsQJjMSGRAV9CslCCrzHCR4FANhI0WHpMOU7S EsziZpExp1RIDlXA3LynhndrtPi5DBGSCEvFpUpuehokK2cDPzU3MDQsWTazYtWadRslFVVYKbWI UUdNNVerpdbaaq/DtdRys1Zaba31NnrsCca1Tj321nsfg0kHIw/ePbhhjBlnmnnaLLPONvscK7qV Vl62yqqrrb7Gjjtt6niXXXfbfY8TDlA6+dgpp552+hkXqN1087Vbbr3tdnfHz6x90/q3x7+RtfDN WnyZ0o31Z9a4WuuPIYLoxJQzMhZzIOFVGQjJxaic+RZyjsqccuZ7pCosskhTcnZQxsggZR/thp+5 +5U5c6n8Z/LmSET8T2TOKXX/Qub+nrd/lLU9ntCllyGVoYLqE9V3a53UbLtm99ZOfqiSmIjc6Ivg pNMXatB9dqRg72lrnLNHreHUsM/sZ45Zbqha6khzt1Mt7LQmcUu3U0Pd8mgn3GLzZrJWSxp7xLmg LQNoYU/WU/1NkVfOJZ315lFXhRC31blW29fassqbtKq9ydJ1SfMxUIOyV96jhTPAifYAhc9tU9eR rzoWgIOZdrLetj9EDVFT+ka35XZba2A1rDSp/KmJAEeSQgZLvifNyl5yWWaTHHVmJEgse/fhm83R S2Kq5iwxW5sG2glZ3qByNUhicn2XWG4/bc3N6LtqOXBGncCSlbDOUf0MeQyU1mKu4XZuGK2MVI0b WMvqe3ntr4OuHi7w1F8TmhqRYI9EylYtxGRYGGu7RlZbuwOQMevMtlK3bbnfutM1KrL3BcgOqWjA rN56Sgp3bwqxpDt2qfMMsra7EhbrvfO2MmcvhCHFk0s4eZa6bqlRb7DSIcMdC8jMuQzfzw3zEMCj YE/0zdjxDKPX22EEFn3inX1hPUjoyGB17JO4wLDo5aYqal43dDBFfP0h7A5JDQeRnoAYuuJJiLel o91QoZ1imfFFC/z5CjoWVUT0WVZVRVDXaVhza5SbGaO3qLhblAJEf7JBNjDKsIkWrATkKf4RwCEP Hynha3njMQf/MBE/nvw7v9Hr5deWfhdiyyLndeemek/Ljx/iAs1Ard59irazPfi7+WPwWBn8USlU uTZceS9bHqKO6c0tUA9qF/NkWIcKtUr1D7vMSSDJc+9RWPZbeNqlUGi7BBEiascvCIsYNassk6qH fqJNg1PsUI3ksaKmbIDAd9J9wuRNmJoKuPul8gELNaVssFcX+8lDZVDvCJjuBX6YdvQc4zhgfEKP B9wPA5i+bLLSqb3QxszccKD8NVaiaA8IXD0GdtxvyTvMmCpoIGiQK7SYu6+bniWOtc7IBm+BbA+w YC08bey7FtLfQqtzF+J0qFwsFoixh5xKtcNggxK3DS0ByHJX7ReWS0P0cODImFlWdZQOxXqszRV3 uVxmj7d7Y+9roCAj7pvZVk6nRGoykFkmIZARqmFF+bKC6wLV6Vm3zVAbhZt5yw6ZBM0GKo3MWdkJ GvMDagpwVBEDsag4PRTWNaw/blSUoPnZDfyAMxgn3kgeO4OLbinGlv3ovS72A8z1Rmkn+EnDJzuN rUxX1kFKRWn9HNzayAEVHFjZAhofBxVYp7Tjy4C4AzFdTTWNKoFeRK3TVzRHvJA1uLCOPSHaF+R1 U2fnc2IC8ASn92uUGU6/BMuxgXUwNo3SHSG1OPNxZBWKAVkqpYihaBYoWKriX/6d8AMXNyKyuHmp wCBNaur844rDVr7ArqeZbHntC4iD4Pw6SKSqEsU8h4iIxCCHYY2Mofc9kLsBENmPZLUPFUYnPQ3k xTPgsjbPrM1hMNaUBTkQXQbAGbORoFwxUUpwqZccdiAGKM6NeWEAzgnoBc1B9rcT2H4cbOoP71gJ 5I/SjX5jiyCxZLQLaPzF9hwULop682kUCPilF2myJJ7qiu2YM5g0xjkuLeeiBUTlsCu0InnDvHdS CSJpeBZFwgof1JtKAF6laIlhE9ExpyPNgbAiEtQGpHAuDSqS3T6IpXiopo2ZKNuuehaDBk4LOIzM WnnZFi4ku8kwRuJxKzgVH9PoaA+o3geD+jEB6Ayd3JLONRqpi7qHVPaKtGWkktoqwTUWgaDtmjJZ BdEoAnzZBlEhWrnig3KhsrFI1BneYaBRaD+SAXygMGzYjsfFPDF5VEvJsAJS1YhszZuk791QPuT1 ltXG9ZgejzMp5B4hwn3RC+IYkM1K1vjOTbSGs0i4kNdJCj/zpaobHNaJvmS7qTYaiJONGh26hJ0z 3OsjWaMQ4a7NNagC6x5ZmjQ/4XdA181z4jBYCjVXZuxlEf0IIUDwh2qfVdI6HR6ToTAGVhNMyNKr QoyiAgg8NRmCMvsgbiuQInyqsWPIFw8GGFENljG6o5wt1YNSUE/4WkJDgSPdmIYF3eEnoKiaz2wZ G2wyQJArUYLcWt0wFMuI2UGLSWoku78xv3ljRtjlgXfLmRQw2b9QUUAvYDuafnwGNQBQhRIsJowe zB0W6JsoXBWI6I0OxYF9ELcRORElbt6PgiCInZi3JYmqBtAxkVVUZjlrtyFo60LixoozAaRkyutL CGKWXG5QS7uCpA1PuaOBov+lzbPcXWFhRzGCp+J3heR5C/VEzeJPMJ/0HBts4KWPUjHVCMFQhTs2 HJR2oIQxWywluZPYw8RAQQXUP6BUwlXXC1uaM7IboATiCOdixLpo5cSJMQcAlCQuBFNVHRlZOVR0 HT8+hkonbobcbBg7C4H3guFgoKlDwPNh5N6ghoo/wThQSjQ/xEgoizfQIGHWMibWE/JC54dwHAqS 1B1f5c5oZtrAiuIkKxldhcKG7gFUHq7gcXiREPecKsXUJ0jHSyjdCbfBY0vkmuqM9hZyPzK+p0Fi siwbmpnRZXAsl1Uyf7IMuI+30qEoWWyMYf+uGk8SMH5Z7oY/eOp4Zc3HOhS5PVVTN6VeCkYOP63d X50dSkvvRHcq9l44AHpTNztig9LtBGnj4KFPNIC2hRWoVBYbQAnhaPrThIVBc7OMuxwO2SL6YlHv /MileNkoYusD8ivHDudMmqx5GvFUq1mAaCqAf3QZ6mmUrV8IHTPU7Utx4IocBhsVVdtiEpvUy6bp XrOwyDlPh/bgEoIIhUFLFzqW+RtiLM/wvNcx+cKDnYoAYlpSWJ0EJ/gYJlitY/UDLIsJGSjBmjQG CKnIxu8LByCKDfRitPzEotPyQIyqkMMwkr5mxICN4kup6GCIKUL0eo8N6guWC9MBoVunBTkRe4wx 02FQi1SKDoiKOgBklZVgIOVMxNVXrQyVRGKxv+vTJpc+6LFVTs1VWJVBLq3pRBvTAugAcaiRiPic B4wGCsCnBqqUuHUhYaU3VyKA2Ek3cxb1AAb4WfudMkFzNDLcF+6z08VgJ4OcvYyQKo1aw6ApBbSm nci24nSeJYbALnrmFJhpgiDGJwiYZ1SMIsdS95tCbOwGqCIFIAN7D1jVzcXhEBgwwyJZlw4RaMUX hHaYbZF5b8RjDDLLFqB92uvW0kLNmCMNcIecEFJixGiojwarQd7l4xu9KPhiNv1NdKapvDhvHdrM /SkoWlUBBuxl/J6jYabL4JWTECGrO6QKPXqdieASag3qf3A4AUUmCMiE0VN23Cx978QCN/oAi+Co 6cQF7YIMcemlYPgwuLhxuPAgKqSRBFzoskMYTMbMdBBD+5vMDA/zPofxBnpjIJ2dbc0Q0IgMW0aK h/Yca8HsmfeDS7rhZadXskXfA3njyGVR6GWdypw/uk4HsiQG+OI1gSuWm+kA4A4N96RxaHGBNDkL YIDV67MCEKzzGGIk2yylM0jMa8AekUiI7XlXgFfEsjnhwPI7UtDFx1x2IXqgSbyWwxDTooNDmmQU aqx3C/23jghljXUGcTDoI2CXabf653Xki/FgxIgsY+gd2kI7w7BRQck6ykHqKNF57WP+MKhxrflM aiKdWNE44WfoOmIieglcomiV94PZJj4UMtULF6pVU+FDgClLuOko0WuY4UbKRm4Cp8lkJWMdFzGC /FdBG6hIkAe+8fswsNUqHcYHiqOJpwf/4BW44puR5rbBS1v44pUUBN9csgIItYkiO0KPE5gEc6RP T9jugGsldBMNoawoRGxGJECBmABklAJkluraIwpKc31yBPFjzAT2q7PJjQ9FPonhNCWP7nKpcWNA 9JhRmgwBMzm/E14MZcA3EX19qJV0YmBgn6jgEaE/GHbiASZRxj9Tz7fQOSbMGG9MBSHsDsDis9Zr q5kPKkPWfUrkChlC1W/EXBOhFHHhtNC0IUBxFtn7wkaxbfIDjqT7j1w+7bT4EVLDBODe/0/pROmR yA6Nm9oaXC25pTWlaGlAeyc/Oosc78hXCVhc5M0hfIYksvxTeumhEMO7Z8AFUsO0WWrzHlovwhZ+ vfTHK3C9HFE2HFTCLuggiBqF3mY5y6td329P2HBMUlavQ8P4CgEGe1sKOoHToRdNGrG+yJvOcCia SetEEpBf9xkYec1HVnWYPkHdx6D7goWAHveaNBZIG0W1aImDPIqXyAaq9tBQ0ILis6ksES3ec98F Djf+zlPpSadyOK5xu07rEiy+KQ9CjxEEzPAShYQAsQf25FQI0DQikR40g04OEY6jP4fHJQR5mvk5 OSbAXoereF8aOMZBpmEoOmBHry1VjhRRxhvsOXR4dZdK9spSwGaVBi9A8+FkQ8d0xnF0K6S//Lqz 9uhdB2cFs4VlSqnTDU0SNxgCV4yQkSnyzqZ/rei8s0RsJETlcSVXjgcT8dmOp0HHfFMXjYaaim0W 8dFJtgMqVf/kmYS5M394unujw14wOdqOj76u0AuEJC0KQSf69ITv6L4WfWxAMfRZaIoUJ1DE2+BB rrQGzqD0uWFJuGy5+igEOmOZwJCakmu0t5AL2sSdhpt6uD6fUjpxUD9b9UGG0aWA9mfR8IPfqf0d 0nopdguvSyefgW2295aAlSdaCZIxGhaSdfPllh7P0Dkk28Jq6diZqpRM6aBxszBM9HdJaOU7FP4F Eb3KgqdepatokP9fX6YYNmgEWxs7o88hjlyIzqK3qB75wREnVquD6LnFhHESpTbVHSGvXXyLZV4w B/YTcqdtpBzb7MHvOTv8lmnU8DlLxMfwlKbBliZuACTE6DeUUEFbsH8p6E1S8OL3gfYH2K0QJkp1 1U1/Pw/uwLrrOv3GgfWhZmS9Y0hsATzYdH6WgxCJbxpYLLqOi8WxQL9LM46XpNnclHPx4mxMAgQT kTaKAAE9xIUS+aB7p4ff9sXv76Guf0mE+y3Uz2QBU5QmY+D0yQMqgRxAC33hRRKGHb8LnRAy+LMX fZLamM/hv/EsgVVD0HYfp7UaD0SIGTL5bcPm8g7c1xkmdU3Q44YY1b1ir6n6Gh3aMT6rEyP3L64x nAo5rd4QkYhy8Vzv5AbTCt5OXVqv5oKd0D6XBt1y1eGl9YybsSViISssZrErvm99h2tXn5ZLecPA juoTLRzXxqGhw/T9c8Tc0XwxYMS5o4o+R8gP/RNFaN1BWIl/IxRBBYO8nlK4ufxbct3rL0v3LJjQ 6SO62+Q/aGFgFnwIsBFeQGLDihBtRLMyt6NnJbn0rDppxAJg7qeOAmTz0C2aIfYR9Jnhwo/A+tRj P4QDTmNZjc0saiC4xdoIP3zXfg/wH0z9eLGJF7VHNtuCtvA2INQ6VqnOtcI5kAidRNF/QxigYNGG wnHU36Ipgb5pFom8z7Tu+ClaJPwsKDhPktwbB6dKiLApNrDTMC5MpRP/gSh4AhzBjX8a5x9qqJjy B2icUDO/dP+xmeNnoT7ovMU/RsNW+y6rEH1BjfLcBAJPoA4IgTTMObmX2Tb6ZegPZ5OrdZVd9MYI WYRuyJA+tuWOJTPXEn2kzqQLzsZHJzWFbMVf74O4ut7HXhQDnREldu7PgPdAe6QDw3rI8cS15zoz bhKLkh3pu6YPS0ui6ydNEWM8s3xwYjlQLW2zn/QHqDasoWP2+3U77382yO+QYffT7vT+HBFWyaz+ MCbPusua7I/TZz0YzHFHCRguJiw7fayP+3of4r+7+18CTwoC0YgZ0wAAAutpQ0NQSUNDIHByb2Zp bGUAADiNjVRNSBRhGH52TTcqRUQ6hMQSYX9ubDvaJkS4aamRJWb+dbBxvtmf2hmXmVmtQ9BJIjoE QV26dIgiIoIg6RBsl7pKQUF4ig4eg8BLyfZ830zuVqw0w/u9z/v7vfO+3zdA/Y28Ybmb4oBle85I //HoxORUNPIVITSiCRoO6IZbSA0Pn0bNZ/Ujvfl8iMlc8QeRe4svWp9cuzlev7x0Yap2nHqahOka QKiDeK9RcDziUeKFea8g8TJxq5HVBfE34g6HBQLhNqmf8XFc4oyP+yR2Rkd6iSeImzNVeKYKG1nH Is4S77ZMTye+RXomLJt71R+lfpewhMQXZW1WvmgENcuv3Wba589JTmpDgu9hdGMcQzX8Lim/UWSR g4soCnAwizSlPEzKvjZNralkaYviMmyiea5RGEQFXKVHDhnm8aiT3i6R1BnkOfrY1BwE5Bz/no+b 1hJ+ZVsX+V13y+XvY0BkH7D2qVz+8bJcXnsI1H0GSquVeHMB0J4yqLGi2/MaaGFv3ryr6HJ3gFec UfNkQXf09QmHNc3vNZ86uTzqAbgtZFvul4B2UnNJ5AwviNgi50N6TtpOehv0+X0gr5B2sJ6wnDW5 1O0n7/HtobFAvu7nCd0mpy20RN5C/oW8gXwliP/p5w9v9uPDO8mJw+3yDJAPkB8jXwjkxyq+F0M4 iWnMcQYOe+73XmPvNcS5JnACfRgkTdNqqhnpnHYKpxg7gCTPS4qe8j3EmO71jDP0tOnrcNoZdQIs xsdUFk9N2abepUbQy6RV7vw72j9ZAkV1Iv4/vlKtRX0XOnGElXXRw+DbGejSXIWS0zzxSdbaSS9B StCSJE+Sx2mtzmdT9vi1Z1lltV7WabInVfeHlhTvSUp1bZZf4XA3eScE6xa0pzDMdxBn0E8fGT+n Tr9JSXpcYYTOHQV5LNgz9scOsQ1mUF2dzFJk5brqZFHdNifIiBr3vEHd8419/vln/AJCxeV8g1hV NQAAAAZiS0dEAP8A/wD/oL2nkwAAAAlwSFlzAAAuIwAALiMBeKU/dgAAAAd0SU1FB+QBFBMVMdsR 4UsAAAAZdEVYdENvbW1lbnQAQ3JlYXRlZCB3aXRoIEdJTVBXgQ4XAAAgAElEQVR42u19eXgUVb72 e2rrNensO3uQVRYRBRVlUUBZRxQXEIEZ7+hszuj4OHpn8Zu5XufCjBuiwjiMuCAKg4CMrIogoiib CFF2CCEhe6f3rep8fyRd6equTrqTDqSh3udpSHftp6re8573/M7vEEop/elPf4olS5ZAgwYNGjR0 HnBaEVz+EKUAvD4nvH4nfH43qpyHUec6CY/fBkolBCQ/AqIPPGsAAQHL6MExAgTODB2XgqK04dDz KdAJRuh4IzhW0ApVgwaNoDW0BR6fA3XOU7C5ylHrPIlztt0ApaAUoJSCovFv+TeELGv6Hrr+t6Vr FNul6gvQM3sU0owFKMoYDJPBAkKIVvAaNGgErSEcXr8TNtcFHKtdhzrncfgCTkiNDAxKAQKAgoAQ 2rgBJQChoE1LQAkImpYFfwr+gcZ1SXA7UNg85ThQuhKUNm7LMAJG9JiHgowByLJ0AcMw2k3RoEEj 6I6Hw12DWtf38IkOSFQESzgQwoFleLCMAB2XCh2XAiOfA47VXRQlSSmFw1OFKkcJzll3weo+qVDF IE08S0NIuWkRSDgpB8m6iZ0bV1JsJxO2TPDBBQQUFKLkwa4Tr4FSityUgbim+13omjMIAq9ZIRo0 aATdQThT9ymOVL7bSLpNpNdIXk30RIgsOoP/6DgLTHw+LLoeyDIMa/RueTMY0v6idnnrcc76BU7V b0RAdDfZDk2c26R4KRp5NPg7pQhRwc0EHKqgCW0mW9JE4JSSZnYObk9DJHYIYVNKZNa+YDuM/xz6 DgYuHTdf9Qh6FQwHrxG1Bg0aQScate4fQAiRCTCCmIO/ywQN+EQb/KINVs9RnLVtkpWmiStApv5q mHX5SNNfBYOQFpPaliQRFbYDOGvdhnrPcTTZw00VRiPhhmhdENJEtCCgtJlwQRt/b1bQ8inL6pgE Vba8L0SqaOWGCpAgaVPA7a/HpsPPIvtMb9xw1Xx0zxuk+dQaNGgEnTjkmIagyrFfJueWiDmUwBU/ NzGZK3AeLsd5UEeQ/BiY+UJkGYYi2zAEZkNOhMo+b/sKJVXvICB6m2iUgIb4wTSoipWHajpAI4vT IJuDytws2xNN65Amwm5WxUEVHaqYQy6KBl1t5TY0dD9N21TZj+PDvb9DQfpATLv2TzDozdqDpUFD jNB6c1pAkWUE0g1XRZAzCZIxIU0Km4BpWqfx7+bfCRPyaVrGNDGlw1+GMw3r8fWFP2NX6dPwSy7F 8XnGCIvQEwxhmisJEFnVy+TcZL/IFUZIBSKvS0JWlPcVWpGQ8FpF/k2+1pDdk6jbRO4CBCivP4x3 dv0KZ6sOaQ+WBg2agm4/CGEwvPA32Fv+Aho8J2SSku0Fme/CvWiEUlizuCUINRWarFwWPVKnoshy E3jGqFTw5kHIMQ+CN2CH1XkW9e5TOGffCr/oRgg3y2oaICC02cagUCpmQmhzBIeKYlZ4zCFWSJN2 b+5IDOtAVCp0ZacjCbFgbK5yrPryCYwf9DgG9RivPWAaNGgE3T6wLI9rCx/DoQtLUOM+1EzMYTYH UTCmurAM9XwFJg2FKbegKGVMqwM/dFwKci0DkWsZiL55U+Hzu+HxOVBq+wQNnlI4vOfhE+2NpExU SBmhHX9BuyJIys2/qUdqKGosgCoC8MLclWYPWtnF2EzvIASbD/0dPKtHv643aw+YBg0aQbeTpBkO Qwt+hvPWr/F93b8abQM1Ja34Wx2pfG90TZmEdFNPMIRt0/kIvAECb8BA070AGjsSXb46uHx1sLnP 40TdOngCDWj2kZUcG0rANELmh6joMMUc5HpKSWjMSBRSJ8ofwo67Yf+zyEgtRG5aL+0B06BBI+h2 Gx4oTLseJiEPh6oXIUBdUNq6ROFuKDvvCPKMN6HQPA4mXVbCz4xhWJj12TDrs5GT2gfFuWMREP3w +tyodOyH1XUGdu8FWN1n4BOdSm1LgoNZ1Ai12eZAqAqOQrqq5EyU+wjdy/bvXse9oxZqj5YGDYkk aFEUQSmF01sLf8ALiUoQJT84lgchTLBxDUIYcCwvv7Q8K4BhODAMB57VJWWBpRm7YWTRn3G05n3U eL6J9KVDVCrHGJFvugWF5tHgWdPFvbEsD87Ao6dhdPN9kwJweevh9llhdZ1FqfVzWF2l8ItehQXR TKhR66omYm6O5gj61KHLm0cxhlsejf83uCq1N1CDhvYSdHVDKb47uxWV9SdQYy9FQPSBkMZY18Z3 OiSyINjbzxBlxEHYOkYhHQzDQmCN4FkBLMtD4I1gGQ4CawDHCmCZxt8YwoHn9OAYHSz6LjDrckHA gGEYsAwHhmGb/m/8m6Bj42151oiBuXNx3nYVzjSsRwDOpoiJRnayCH1QYBqDTGM/ucLqLFZNiiEb KYZs5Fh646r8WwEAgYAfTm8NquwlsHkq4XBXocZxAg5flUIRE9JExJQqiFZWxmGKOjhQJpTG0dSR aBQsmHH9/2pvoAYN7SFot9eO1zbOlV8uJhixIBNwSxILUEjK0P36rY0kT+qaST2CzIl8TLV1EL5+ 03Ke1UPgTEjT94RF3w08qwfLCOBYHThG10T+usaMbWwqdJylOUQu5jwSBIWpNyLbOBRH6/8JV6AS WYZBKDDdCgOfkVwPAcfDwuXDYspX/O4LuODxOeD1O+DxOWF1ncOJ6m1ocFfAH/A0k7SCmAmiy2+C NFMeumddixv6PAiDTouJ1qChRZahlNKHH34Yr7/+etSVvj25FduPLIPNfaGRoGWiJsrvYeSqRp5q ajpSdUdZR1boBIRBhEIPPa8WjxPyG8NwYIkgL2MYFjouFQKXAh1rgcCZkaUbDp4xgWd14DkDeE4P 4MoeFSeKIgKiH5IkQqIUkuRHRcNhMIQFw3AyYbMsD4EzIsPUDTwvNMV0a9CgoTVQShsVdGuqcXCv 29C3y004X3MUXx9fjZNVX0YVy2o/E4WQJsrBEar7Ia2J19aPGRKbTKDswAsNWKZUhAiPTNySBIgB F1yBYGVEUO7Yqag4ilLHolfajCv64WFZFiyrjEJJMY3S3ioNGhIESZJiI2gA0AkG9CwYgp4FQ+D3 +3Cu+giOVezCicrdcHpqgHAiDCdNFcYmUPmfxCpOicq6yk46ohz2piDrZlUd5sDIIwYjEyTp+Sxc lX4fMgz9Yirgc46NaPB+D5H6QcCAJXqwjB4s0YFnzDCzV0HHZIFlBDk7HssIWs4KDRo0QIpVQYeD 5wX0LBiKngVDIYqPwOasRoOzGttLFqPeeQ7Nw+RUVDSUKlpNTasp7vDtWtfrKquQ6Os0J0UKOzsC CKwZPdLuQIH55rg6/fKNt8AjVqHO+y2CWY6o3HwBgB1N/ysT5gtMGlK5AeAZAzjWCI4YwLMmcIwB Rj4fAmtq7AzViFyDhsvX4pCaCLo9LzrLckhPzUd6aj7m5S+BJElocFbhdNU3qLOfw7HK7fCLLnWm jnA4SLiQjRDMoYQd6la01FlJYrZTQkkaEJhUFKffhdyUIWAIH3fZcIwRvS0Pwu2vwTnnWlh9R0KL HwhJmN84/LoxLtknWVHt2wUqNRJ6kLgbZzlp/o0jRghsGvRcOvRcJnINI8CxevCsrul/fbMfrEGD huQiaJoAgg4HwzBIT8lDesoUAMBo8SE4PVbUO8pwsPTfqLGfhl90gUJsVQs32xSxnJ/SrohUw82j /tCKlcIxJhSnz0B+6nCwDN/uMjHwWbgq7SdwB6px3rUJdZ4DTSPyQkbi0ZBBI3LwcEj+ZpUwNr/k gk90wu4tA6VAqXV740wqtLF5RCmFjrEgwzAQOs7c2PHJpULHmWEUcmAWcsAwrDYDigYNVwpBR5Ad y8NiyobFlI3uuUMbB7h46lFtPwWroxwV1u9wzvpN7DuMMKyjkLqq+g5V3kovupGY9eidfg8KLNeB 7QDlaeCyUZz6AHymqahy7UWFZxNEyS8r6OaOS2WUMaKEsTXzeGh6UCiWecUGlNt3gTaRduN6SkuF ITyMfCZS9V3QPX0MBN4IHWeGjjc1xaGz2tuiQcPlSNAR/EoIzIYMmA0ZQA4wFFPhD3jg9jrg9jbg UPlq1DnOwBuwQ6QedZaNh8tj2IYlRvRMm4yu6TdflBmrBdaCopRxKDDdgkr3LlS4dsAr1kVUMqGp nUOTDinH7yndfmXeudAkRc37CY9VFiUfbJ4KNLjLUVr/VQSB56UMhlmXDaMuA0YhA2nGLkgzdgHH 8pr61qChowgal4Cg1cBzevCcHqmmLNyW8SQAwOt3od55Dg53FepcpThW9TEoAio+CInFKImyKkGP 1GnokTkOAm+46NfNMBzyTaORZ7oZVs8xnHduhs13EsFE+2pEHJLRM8LyaHmQCFobQxJlGUWF7WAT WYcSdyP1C4wJKYYcFGePQ5qxEDrBDKPOApM+Q4t51qChfRK68yZL0vFG5KX1AdL6AACG97wfPr8L Xr8Lp2o/RZ3zFBzeKnjFBkjUq844LXQcCmwKhhX8Gummbpf8WgkYpOv7Il3fF76ADRdcu1Du3AG/ 6FJLURQjEYcOrY5j21bbJMptvQEHPHYHqmwnFSSeqi9Aij4HqYZcWEz5KM65GXrBBIHXdarh7xo0 dGJ+7hwKOlZrRCeYoBNMGGK6R/Zo3L4G2NzlcHprUe0oQZntixb8jkbkm2/EwPx7IHCmTnedApeK rql3oEvKBNi8Z3HOvhl17pLGTtWwLKBt5tk2UXHrC0N/bnCfh9VVJivuz79/Q55VfGDhHSjMGIgU QxYyUgph1Fm0kEENGqJZHMkKQgiMujQYdWkAgF65oyBJP4Ev4IbLa8WJuv/A5jkHUAlusRqAiGzD UAwpnNvpvVNCWFj0PWHRPwJR8qPatR+Vjv2odSf3lFGUSjh07iN8W/oRKKUQWCNMQhayLT1wba+7 kG7Oh0Fn1ghbgwZchvmgGYaFXjBDL5hxXcpPQSlFIBBAWf03ONuwDRwxoqbhDCzGQvB8cnRysQyP PPP1yDNfD1/AiXr3cZy1bUSD50zS3y9vwAmP34kaxxmUlH0KADAJmRg98CH0LRoFgddpb6kGjaAv VxBCwPM8dGwKXIELcPjPosZ7AByjb5xZW8hFV8t4pOoaO7gSEffcsRaICbkpQ5CbMgR+0YNqx0FU OQ+h0rkPlEoJbF7FvzBRjovdU4P13/wvtn2bgZ55wzBl+BNgWW3AjQaNoC9L+ANuHKx8XU6KFJBc EKkbhBD4PHWo9/4gx0Nn6AcgxzgMZl0ejEIOdFxKp70untWjwDICBZYRECU/nN4qnGv4HOX2L+GV 7IllzRZ3lriDhMZyO711OHRmC9w+B+67+VntbdVwZYFeIQR9qOItBCSXnABJSSxE8WedpwRWb0lT bg4Gei4dKbquSBG6IVt/LXR8aqdU2SzDI9VQiAGGezEg7174Am5U2Q/B6jqDCscBOH0XEDbNd/s5 lrb9wYsHpyv3NYYdar60Bk1BX36osO+LiTNI8z9NHCLBK9bB665HrecQzto+AiEEei4dWfrhSBF6 wMhnQ89ldbrRdgJnQFH69ShKvx4DMBNunxVurxUn6jaixvED3L762Aj0oijwlloJOswb96pGzhqu XIK+3B/+DH0fVLsOh01e3TSLXpOqDC2DZoomzcSN5iQZXrEe551bQVxNSf8JCyOfDxNXBDPfDWn8 QPCcqdOQNkHjFGNGIR2ZKT9rrHokETZ3BepdZ+D01sDuqYTTU40q5xEFn9JYSTZW7o2B/HtkX4uc tF64tuePkGrOAMNoQ801XIkOB70yFHS/3BmoPn1YwQnhk5ki/Lti/HSQrJvWoAAhIUmMIMLpL4Mr cB7Vnj0gZBUAAgObhQzhWhi4POi5LBi43E5D2gzDIs1UhDRTkeKBCAQ88IteBEQvAqIfIvWj3LoP bn8D/AE3ApK3Kba5cYuA6Idf9DSROY1In0rAgOcMYAgPjtWBZ3RgGA4C1zjXZPes68AwTNNsNXpw nJC0Ewpr0JBoaXVFEHS6qTsG58/HoQvLQGj4fIlhc043LackcjwGCUmOQali8DWgmNuagoDCLVbj vHuj4nA6JgNGvggWvh8sfB8IXAoYwnWSx4E0TemlHPaendpDe1c0aNAsjo5D98xR4FkD9p9/NcTg CFHPcupPhBAtQBTpPps7FOU/5RmsG8mdqifJkOEJ1MIdqEWt+6CsOgUmDZnC9TDw2TBy2TDrumoZ 5DRo0EwOXFHBpYVp14JnH8fespcgQWy0LKhymizZgaZNDjRptjZCveggoQdzOCvyOgdzN8vpQcN8 E9nbbdzWE7DifGCTbAsABAYuG2a+KzINQ5EqdIXApWqkrUHDlaigryTkpAzAbb1fwt6yRahzHw2Z notEKGI5k5xsewQ96MZOxWaSDsvhrCBnGlErBo8T6tc2q/jG4dBOfyUcvgu44PhazhyXoRuCVF0X mIRcpOl7Q8elaNENGjRoBH15gecMGNHtCZyo+Q+O164NGRxB5eT3shcti+BGoqZBfyOMpJWWRnSL Q2mpQIWcm6e0AlV+r3HvR41rf0hnHIFZKEJPyzQYhXQYhIxOmQBKgwYN7SBoSukVd+GEEPTOnowu aaNwsHwJ6j3HlCo6xItunOy10cIIJ+nm/1tSzWoE3aSeQy2PcHKWLRGq0N/NVgiFzXMWB9wvy0Se yneDxdADGYbeyE0ZDJ7Taypbg4ZkBL2COgmjQc9bMKLbE6h2fI9vL/wDAcnRWB40JLSOELmzkIaR NKE0ZJYShGXSD1YGyiHMMjVT5d+UhvyNEAUdGsIWStah2zT90OA9A6vnNM7Uf9pE4gxSdV3QO2sK zLpsmPW54Fm99vBr0KBZHEmjp5Ft7o+xPRfiVP0mnK77GBIC6raGHEYXmkpfOdFUuIJWa6DQkAWR ajoKOSNslu/QTsfQdWX2BihEWN2n8XVpo8pmiQ4WfXekG7uja/oopOhzwPP6sJgWDRo0dAIBnbwE TSlFeXUpNny+AhmWbEwfPQc81775BBmGQ3HmZHRLG4ujNatQbv8SFFLTiMPm6A2ikMSKyf7iKnxE I+ag3RFl8Iesu0MJOWzHTdPDNqvspu0Ckgc1zh9Q7fgeRys/bpy1gdWja/qN6JJ+HVIN+TDrs7S3 Q4MGTUG3DZIkYdEHz2DtzuWos1UBAPp0G4xBvYcnZP88a8TA3AfRO3M6ztRvwznbp5Bok6ImzWQt jwOXw+ygYnmEk2fzHwr/OYScQz1oNXJujgCBbHuEknWTPR2RHCl0TsFQ+ANunKjaiuOVW0FBkaLL R05KP+SnDUJh+lAInGaJaNBwyQg62Tzo19c8i2UbFip+c7hsCT+OjrOgT/YM9MqchDP1m1Bm2wm/ 5AybXVtpcAS/h9oP6gpauVypnlsj5+aID0W+jBCPOpSsmy0Rpe1CEa7AG39scJejwV2OY5XbQCmF xdAV/fMnwWIsQHZqr4sy87kGDVc6SDIq6LqGGryzaVHE7wHR33G1GKNHceZ09MyYjDrXUZxt2Iw6 9/EQ9m1W1MHsHC1auuHcTcNsDiAmcm62QCJD8tRSiyq87uZeyebokdArkvcPWF1nsevEq42zDDMG pBrykWfph6uLpsGos4Blee1t0qChoxR0soTZBcQAfvG36XB67BHLDLqOj/9lCIcs0wBkmQbAL7pQ 2rANVc4DcPoq5FC7kAi9pj/CPA41YR2FmEPvTQQ5h6juUBVNQxU0jexQpCHr03DXJYLUm6NLgtv4 RBdq7CdRbTuBQ6UfgYDB4K4zkJXaA4XpA2HQpWpvlQYNCUDSZbP7+vBnOHJaPbezyWC+qOfCs0b0 ypiKXhlT4Q3YYPWcgs1TiirnN00T1KLVBPkhTrTqgJVohK2M0qCKTsVQEg5V+OEdjJHqOdS/VssJ GloZNG8j0QD2nXm/aeAOixR9DoZ0n4GeOdfBpE/X3jINGtqroJOiNqEUz775K9VlV/ccjq65vS7Z uem4VOSahyDXPAS9s6bCL7rh9teh3PE57N5SOHznEZA8UQhaScDRyJlG6USMIFlFOJ5ySHm4dRGh nmlzlRG6bfO6NExtK2lckkTUO8ux/cjL+OQwUJQ+GNf0uBPdc65Jisl5NWjolASdDJ2EF2rKYHc3 qC7Lz+oKk7HzzB3IswbwbCFS9ffKv4mSH3ZvGdz+WngDDXD4zqPW/R08gQaE20zR46JDPGeoRHCE +dbh1kZoxyAioj+oIjZbwcAhnZGh6jmSqJXnda72IEprD4IhDIb1vAsjet8HntNyPWvQEKPHkTwK esOuFWhw1Kkuy8ss6vSVDMvwSDP0QJqhR1jLQIJf9CAgelDvOQab9wxcvhq4/NVw+WshUT9AG60E GqJeFUPDWyBnGtJ5iPDRi2rqHSqDXsIsjlCPrNleoWH7bd5GlALYc2wlDp7+CPPGLIXZkKm9fBo0 XC4WhyRJqLfXqi5jCINf3PX/kvYGEMJA4IwQOCOMuhEoxIgIa0eU/HD5q+EX3QiIbvhFN/yiC37R DV/AiTLbbnj9DQhIfiCCeKn6wJcQRR3pUSvYutnyCBuliDCtHa0DMngMj8+B/ac/ws3952pvngYN lwtBuz1OfLp/neoyvc4Ijrt8R6wTQsCxAlLZwqjrDCy8q7EioyIkKQCJBiBJIiQqgVIREhXh9dtQ 5SiBX/TAL3kap68S3fCLXvhFD7x+JwAKX8AFiVJIkghfwN1M3gyNUOYevwOUUjCEA8vqFOF+HGcA AYFBSINJSEeOpRh9Cm5Bujlfe+s0aIiHoDu7PeD2ulBRU6q67L8fXASW1RLZN7YmWDAsCyDS500x 5CArtbjN+1YLxRQlH2hTKyY4bZeWOU+DhitMQYuSqPq7jtejILurdhcvkpKPeHi0yV01aOhY0ZUc p6keS3z9gLEYVHyddhc1aNBw2SFpBqq0NNBRszc0aEg+BAIBOJ1OuFwu8DyPzMxMzR5TQXL0rkW5 b9NGzdFuqgYNSSGyKERRRHV1NT777DNs3rwZX331FU6dOgVBELBx40aMGjVKK6hkJGiWUVfJNwy6 9bJ4cH0+HwghYBhG/nSkcgnt8JMkCQBUjxn6G8MwWmUYBX6/H6IotrpesAxZlo16jyVJgiRJEEUx phw5weeFZdlOd38kScKFCxdw4MAB7Ny5E4cPH8bhw4dRV1cHh8OhWLekpEQj6GgE3fkHeajXIzyX /FnUKioqMH/+fJSXlzdfL8uiV69eeOONN5CWlpaQ47z99ttYtGgRPB5P++4Fy0IQBOj1ehiNRuj1 euTm5sJisaBr164oLi5Gt27dUFBQALPZnLDKRpIkvPHGG9i/fz/q6urgdrvhdrsBAB6PpykEsJnQ CCHQ6XSwWCx44okncMMNN3RYhffwww/jm2++iWu7oqIirF69GkajEQBQW1uLWbNmKZ6DeNGrVy+s Xr2609h+ixcvxq9//WtZBLQEm80GDcmqoJseOEJI0wf45V1/AXcZEPSaNWvwySefIBAIKH4/dOgQ 7rzzTtx///0JOU5GRgYuXLgAq9UKh8PRIRkMCSEQBAGCIMBkMqFnz54YP348pk+fjuLiYphMbc84 SCnFypUr8cMPP6Curg5erzfmc0pNTcX111/fIcR19uxZrFixIuaKj+d5WCyWplhxTqHCKyoq5Hvk 9/vjuj6z2Ryz6m4vysvLcezYMeTl5eGqq66KWgnn5+ejX79+cDqdqKqqgsvlavH+yrMVaUg+i0Pg OQgCB55jwbAMehX1SfqbKYoi3nzzzQhyDirG5cuXY+bMmQkZiDNp0iQcOHAAu3fvxo4dO7B06VLY 7fZWtxMEAb169ULPnj2RnZ0No9EIhmHg8Xhgs9lQUVGB06dPo6KiAqIowuv1wuv1wm6348KFC9i9 ezdeeukl3HTTTZg9ezamT58OQYg/4T/LstiyZQu+//577Nq1C5s2bcL69etjIvbNmzejoaEBGRkZ Cben/vGPf8REzoQQXH311Zg7dy4GDx6MESNGKMohLy8Pn376KY4dO4Yvv/wSK1aswIEDB1pUnxkZ Gbj33nsxbtw49O3bF926devQQVuUUqxatQqPPfYYKioqoNfrceedd2Lp0qUwGAwR68+YMQPjx49H TU0NtmzZgtdeew2HDh3SWDfOQqe/+93vaGeG1+eht/06j055sgu98/fd6d1/6kmPlh6gyY7vvvuO MgwTOjJa8cnJyaEHDiT+On0+H129ejXNzc2Neuz8/Hz6pz/9iZ44cYI6nU7q9Xqp3++ngUCAiqJI A4EA9fl81OVy0fr6elpSUkJfeeUVOnXqVNqlS5eI6yKEUJ1OR0eNGkW/+OILKklSm89fFEVqt9vp f/3Xf1GO4+Rj6HQ6yrKs6vUsW7Ys4eVYVVVFBw4cGLUMQz/jxo2jR48epX6/v9X9SpJEL1y4QEeP Hh11f3q9nq5cuZJ6PJ6L9rxu2LCBGo3GiPt6991300Ag0Oo9O3LkCDWZTBHXwvM8XbBgQbueicsR 1oYGmhQELUkSveuPvejs/+1D5/9tAP3Dm9Oo021P6sKXJIn+8pe/bPGlZlmWPv300x3y4DqdTvqj H/1I9bgGg4H+7W9/o263O27idLlcdPfu3fThhx+mKSkpqvvPysqiixcvbvWlbg0HDhygXbt2lfc7 YMAA2qVLF9Vj3nHHHdTr9Sa0DN99911qMBjkY1gsFioIgurxV6xYEdf1SpJEV61aFbXCue666+K+ P+1BIBCggwcPVj0XQRDowYMHYxIG48aN0wg6RtRbG2hSDFQhhOCBCY8jI82MrPQUdMvrdlFmUOlI VFVVYdu2bXLz/dprr41oJoqiiNWrV8NqtSb8+Hq9HjfeeKPqsrS0NIwfPx46XXwjBRmGgcFgwMiR I7Fo0SLs3LkTt956K3he2VdQU1ODRx99FPPmzYvZa1VD9+7d0a1bN/m72WzGPffco7rugQMH8P33 3ye0c/C1116TOyrNZjMmT56s2tTX6XQYNWpUXB44IThyEmQAABtbSURBVASDBw9Gly5dVJePHTv2 ouagkSQJ58+fV13m8/lw4sSJmK5p2LBhmm0RzzuVLCeaYclCaqoRllQTstKzk95//uSTT3Dy5EmZ LP/7v/8bXbtGDls/ceIEdu3alfgbzzDIzc2N2pGVnp7erjLmOA5DhgzBu+++i5kzZ0aQUyAQwLvv vovHHntM1YOPBQaDIaLjccyYMaqRL1VVVVi3bl3COtFOnz6Nr7/+Wv5eWFiIMWPGqK5rsVjkaI14 YDabYbFYonbAXcx3gGVZ9O/fP2plP3To0Jg7NFvyuDUkKUFbzBlITzUhI92MopxeSV3ooijilVde gc/nAwCMGzcOEydOxNixY1WVy+LFi9tMYi0hKysr6ssYjRjiRU5ODpYtW4b58+dHKL7gtT355JNt ejnVXviuXbtiwoQJqmX+7rvvymXeXjX54osvyvsihGDevHlRySc1NTWiFRELBEGISuztrUDbUqG/ /fbbKCoqiqiIf//736NHjx7tIuhghJaG0DJJIoJOM+XAZNQj1WxAcfbNSV3wZ8+excGDB2W1Om3a NPA8j7vuuks1ZOnIkSM4duxYws8jPT096svYFkJpiWieffZZjB49OuIlDEZCbN++vU37NpuVc1Ea jUaMHj1a1Wo4ceIEvv3223ZfT3V1NT7//POY1DMAmEymNoX4cRyneh0Mw7RJkbcXXbt2xa5duzBk yBCkpKQgLy8PCxYswO9+97uYyJUQ0q5QS01Bd2IUZgxAZmoeTEYdjLrknZGDUopXX31VDs3q378/ xo0bJ/vQ119/fcQ25eXleOeddxLeBGzJY060msnOzsZLL72kGupmt9vxm9/8BnV1dXHvN7wi4Xke EydOREFBgaryfe2112IaONESPvzwQ9nPJoRgwoQJuOqqq1ok2rYM2GFZVpXYL+XIwW7dumHfvn04 f/48zp49i9/85jdxVT6Xc+72DiPoZPB+ggNUCCFgSPImSLJarfjss8/kMh85cqTcbDSbzbjjjjtU rYB169bB6XQmvNl6sQgaAPr27YtZs2ZFbSUsXry43c+i0WhEYWEhbr5ZvZX19ddfo6qqql321PLl y2XLyWAwYNq0aUhJSWlzWV/Me5Co5yYlJaVN8ewaLlMFTQgBRyxwe/0gTPIS9I4dO+RgfYZhMH/+ fFmBMAyDH/3oR6rqr6SkBDt27LgoBN1RfiDDMPjVr36Fvn37qhLfG2+8gYaGhjgrbRKh0DiOw733 3qvaQjh+/Dg2b97c5ms4cuSIonOwX79+uO222+T8Gmrl1hHleanIOzjiz+/3o6GhAbW1te1OH9AS fD4fjh49ijVr1uD555/Hk08+id/+9rd49tln8e9//xunTp3qkP6ZzoKkam9kmfrgaNUpMIRJysIO 5pMIhpb16dMHQ4YMUazTp08fXHPNNSgtjZxBZtmyZZgwYULCmomXqol88803o6SkJGJZZWUlVq5c iYcffrhdlQAhBEOHDsXQoUPx1VdfKZb7/X68/fbbeOCBB+JWtZIk4fXXX5ctEpZlMXv2bFlJXi4k HITL5YLb7ZZHhR46dAhHjx7F4cOHceHCBTgcDkiShGeffTamlASxXg+lFNXV1Vi0aBHWr1+P8vJy 2Gy2iA5evV6PjIwM9OzZE3PmzMGsWbMuiTffYZWhJCUXQQ/uNg1Hz3+RtAVeVlYmh8wRQjBr1qwI D5XjOMyZM0c1JOybb77B8ePH0a9fv4uilDpEEXAcZs+ejSVLlkQcw+v1Yv369Zg/f36bm89BEsjM zMStt96KvXv3RiisnTt34sKFC6otlZZQXl6OTz/9VP7eu3dvTJkyRSb6i20ZdSR++OEHzJw5E5WV laitrW0xW197LKPwZ66+vh4vvPAC/vGPf6CysrLF9T0eD8rLy1FeXi6nFPj73/+O8ePHXxYRIYRh Gi2OZLkYgy4VOjY3OWtDSvHmm2/KaRYLCwsxY8YM1XVvueUWVRugvLwc77//fsLIM9p+OrpPYtiw YVEHYOzZswc1NTVxNbejKelp06aphgv6/X7861//ivu8P/zwQ3lABiEE48aNUwyUSXTZtfRednRi IUmSYLVa5UyBLSE4WKc9EEURn3/+OaZMmYK//vWvqKmpQX5+PsaMGYM//vGPWLJkCf71r39h4cKF mDdvHgYOHKiICJEkCUeOHMFdd92Fp5566rKwPQhIciloluEwYegjSVnYdrsdmzZtkpXI4MGD0auX ejx3WloaJk6ciKNHjyoiDkRRxMqVK/Hkk0+qhl91FpXcGniej2rj1NXV4cCBA3GrWzVSGzRoEPr3 768IiQti06ZNePTRRyPC9KIhEAjgzTfflO8fz/OYO3duTHZTMg7A6N+/P7766ivs3bsXe/bsUUSu hKO9seWUUmzduhVLly7FqVOnYDabMWvWLPz4xz/GoEGDwPO83DoJVspWqxXvvfceFi1ahKNHj8r7 cjgcWLBgAWpra/Hqq68mNFz0UiDpzNwsS1FSFvSePXuwf/9++fvs2bOjPjwMw+C+++5TDUk7fvw4 du7cmdzKgBAMHz486vL2dOKFVwT33XefqvVw6NChuHI4f/nllwqCGjlyJAYPHhyhOhNJ0pe6ZVtQ UICpU6fiz3/+Mz788MOorZ72qtVAIIDt27fjzJkz6NevH95++228/PLLGD58OHQ6neL+BSe2yMjI wCOPPIK1a9fipptuUoT6UUqxfPly/OEPf2h3SGWnIGhtiGXHItg5GMxhnJ6ejjvuuKPFbQYPHozi 4mLVfUVLUZo0Dx3DoLi4OGocdrzJ71siuPHjx6sSi81mw3vvvRfTsy+KIt566y05WkEQBMyePTtC PV+u7xHLsiguLsbMmTM7hKCDz/WAAQOwcuVKTJs2LaY+CIZh0KdPHyxZsiQiDt3v9+Oll15KeOST pqAvQ5SXlyselOnTp7fatBYEAQ8++KCqivryyy9x/PjxDj3njiab1NTUqDZNZWVlm5VP+Hl36dJF dQQjAKxduzammTzOnDmDTz75RN73wIEDMWnSpIh9Xm4KOvxcBg4cGLUCa89zRQjBkCFD8O9//xuD Bg2K67oJIejXrx+eeeaZiOfJ4/HgiSeeiCnvuUbQVzA++OADeZRcSkoK7r333phCvKZMmYK8vLyI 38vKyrBmzZqkVmxmsxl6vV51Waxz/MUCQRBw++23q6p1q9WKDRs2tEoo69evx9mzZ+XfxowZo5po 6mLej0tB3qmpqarKtr0KmmVZ3HXXXVH7ZGIpi0mTJqnOaVhSUtLqPdYsjisYDocDH374oRz73K9f P4wcOTKmbXNzczFhwoSIlzE4E0us0z5dKpXcEvR6fVSLQxTFhBE0AEyePFm109Hv9+ODDz5ocaCF 2+3GsmXLZHWs1+vxi1/8Iu4Y6kSX9cUm6NDpzNTsiUTsuz0wmUyYMWNGhIp2u91YsGBBQp+ni1fo Saqgj5V+lzTneuTIEezbt0/+PmrUqJgjBziOw5QpU1SD70+ePIk9e/YkbcXl9/ujKq9Ek5nBYFDN cAcA+/fvx6lTp6Juu3PnTpw5c0b+ftNNN0XtLLvc0dkzzt12222qCcCOHDmC+vp6zeK4WPj7iqfg D/g6/XlKkoRXXnlFjhPV6/WYNWsW/H6/TFCBQEBWjMHvgUBAXueWW26JiLUNkthrr73WrhCnRHum 8cBms0WdRDQ4bDpeVdpSTPSDDz6o+vKWlZVh1apVqtt6PB689dZbcuy62WzGz372szZlpmtLebYU 530pWj+JOJ+OvJ6ioqKoLaVPPvkkKQk6KVNL3TDwNhw6/jWG9bupU59nVVUVdu/eLX8XBAGvvvpq 3M25aFbG3r17cfLkyTaPLLyUIUgOhyPqdYXGvSaKCPv164fBgwfjs88+i1i2du1aPPnkkxGe+OnT pxWTJfTt2xe33HJLmwgm0YSarLZkRypwQggGDBiAvXv3Riz77LPPos62oxF0gjGo+Dqs3/VupyZo Sinef/99xTRBNpsNb7zxRsKOcerUKaxevRq///3v2/TgXyqCppSisrIy6gi0jIyMNqnUlogrJSUF kyZNwueffx7hRx4/fhw7duxQ2CCSJGHlypU4d+6c/NuMGTOi5tC+EuyN1so91pzQHVXpEEKi2k+l paWQJKnNFf8lKXOQ5LQ4zIZUrPnsn/D5O6/N4Xa7sXHjRlklchyHtLS0Nn/UfGhKKT744IM2dxZe KotDFEUcOHAg6jEGDhwY08uu1uSOtk9CCGbOnKkaOeJ2u7FhwwaFXWSz2bB27VoFwc+ZM6fNBHM5 KOhkUO3RZmzxeDxJ2VGYlAo6N7MQ3fP74LsT32BYvxs75TmWlJQoRvyNGzcOixcvhl6vlztb1F52 SZLkDwDZj965cyd+/etfR/i2R48exfbt23H77bcnjYKWJElh/YRj4sSJHUIiwTzRGzdujDifTz75 BKWlpSguLoYkSfjoo48UnYfTp09HTk7ORSW3i0n4F4u8O9riiJbNThTFpLSFuGSpGRXNVZMFV/cc jrc3vYxr+t7Q6XqWg2FwwSY8IQT3339/m+M8KaXIycnBwoULIwaoBAIBfPDBBxg7dmzcs3BfKgKo qqqKOgu0xWKJOQwx3kqHZVncc8892LZtW8Rs4sePH8fu3bvRo0cP2O12fPzxx/IECenp6bj//vtb zLtxsT3ojoTP51OdBSYR71lHWhyU0qgdz22d1eZSIyktDkIIinJ74Ez5Udic1k53fhUVFdi0aZP8 vUuXLpg0aVK7rtdisah2clBKsWPHjjaNLLwUClqSJKxYsSKCIIO44YYbkJ+f32HHv/XWW1WnpwoE Anj//ffh8Xhw7NgxbNu2TSaMAQMGqA6CuNzsAaAxR0lRUREeeeSRDrmGjhZT0cLpzGZzm/s1NIJu A+4Z91OUVZ/GybLvO11Tb9WqVSgrK5MfyAkTJiAtLa19N4phMHPmTNWRhaWlpfj444/j9tguhQdd X1+Pjz/+WHX/Op0Od999d9wtgXgqnby8vKgKff/+/SgpKcG6desUKU/vueeeVic7bSkErSMqw464 P8ePH8fkyZNRU1OjGmnUUohcItRvIir/0E75UBQXFydljuikJWhLSjoYwuDDHW92qvOy2+1Ys2aN 3HFnsVgwderUhNTevXv3Vp1UVhRFvPfeex069VCiSGXbtm2KrH6h6NatG+6+++4OfdFZlsWDDz6o uqy2thYrVqxQdA7m5+cnJDwrkR50R5BzdXU15s6di3PnziElJSVqYqTObHEEAgF5OrlwtKcFqxF0 GxXlMz9egg273u00KQUppdizZ49ihF+3bt1w442J6cjU6/WYMWOGaprSY8eOKSaj7YxNbqvVigUL FqgmrxEEAb/97W9jHmXZnuu69tpr0bt374jf/X4//vnPf8p2EcMwmD59umra10tJ0Im+h3a7HY89 9pg812L37t1xzTXXdMixOlLFnj17VnV2F71ej2HDhiUfyZEkT5Z045DbUFw0AKUXTnSK8/H7/Xjr rbcU/mo8Q7tjwZQpU5CVlRXxu9vtxtq1a+Oa3eJikrTf78eiRYvw7bffqt/LG2/E7Nmz20VilNKY KmudTocZM2aokoXdbpfvX0ZGBmbPnh1T66e1Dte2lLUkSR1+j1wuFxYuXIj3339fHno/fvz4uOf2 u9RRHJIkYcuWLXJSsvAKOZHvoKagY7U5zOmYOuoBHC091CnOZ9++fYq0ohzHYfLkyQl9KM1mM+68 807VF2Tr1q0oKSmJ6WWhlMpDmNWWJbJVIooiVq1ahVdffVXVJ8/Pz8fixYvjniUm/Bq8Xm/Uzsdw krj77rtb7YwcPHhwXMrL7XarXp/L5WpTDK4oilFj3BPh+9bX1+OPf/wjnn/+ebnczGYz5s6dG/cz mwiCbs/1WK1WrFu3LsLmM5lMePrpp5MygkMm6GTOZnffhEdgMqRc8vPwer147733FJ0UeXl5KCoq SihBsyyL2267TVURlJaWYsuWLTGlf6SURs2TK0lSwvzsQCCArVu34qmnnlKdBNRkMuF//ud/2jxc PfQaXC5XzIN2+vfv3+ox582bF3OHJaUUbrdbteydTmebKjyfz6faIpIkCT6fr82VaLAz7emnn8bL L78shxMCwIgRI9CjR4+olbbaMeOpfDpCQUuShA0bNqjG1l999dUYO3ZsUnJb0o4kDAXHchgx8NLe AEopDh48iOXLlyse4KKiooTMHRj+gA8aNEjVQ6WU4q233opplmVKqWpzMEiqsSSyb23/VqsVL7zw AmbPnq06/6DZbMaLL76IuXPnttk2CVXQdrs9ZotHr9djzpw5UZf369cPkydPjruyUFPwDQ0NbcqZ 7Ha7FeQZWrY1NTVtIujgCNfbb78dS5cuVZyvTqfD9OnTVe0NSZJgs9lUy9dms8V8fWoETSlFRUVF m8qIUopDhw7h2WefVVXPL7zwQruigjSLIyEkfWknhqyrq8PChQsjSM3pdHbI8NK0tLSoHVdnz57F mjVrWs1yJ0kSjh07FrU1UF5e3uaOLZ/Phz179uChhx7CM888g9ra2oj10tPT8dxzz2H+/Pltbn7W 19cr4l5ra2tx4cKFmLefMmWKakuEYRhMmTIl6rDhaHbEuXPnVO+33W5HRUVF3NdXUVERdbvTp0/H 9WwFAgFUVFTg8ccfx7x58/Ddd99FEHxmZiamTp0a9XmJ9kzU1dXFZC0Fy1bt3N555x289NJLcLvd MT93kiThzJkz+OUvfxkx8InjOPz85z9XjXpKKlBK6eOPP041xA9JkmhtbS39yU9+QjmOowAUH4Zh 6KJFi6jb7U7YMf1+P92+fTvt2bNnxPGCn65du9ItW7ZQv98fdT/ff/89HTRokOr2DMPQadOm0W++ +Ya6XC4qimKLZeD3+6nT6aTHjx+nb731Fp00aRLV6/Wq++Z5nl5zzTX08OHDVJKkdpXDP//5T2oy mRT7f+CBB2Iub0mS6Jw5cyLOMS8vj54+fTrmcxFFkf7www+0R48eUe/JL37xC+p0OmO+ZpfLRX/1 q19F3V9+fj796quvqM/ni7qPQCBAGxoa6K5du+hDDz1EMzMzKSEk6j7vvfdeGggEVPdVV1dHhw8f rrpdbm4u3b17d9RtQ7F+/fqI7TMzMynDMJTjODpmzBi6fv16arPZou5PFEVqs9no8uXLaf/+/SP2 x7IsnTNnTotlkwyw2x1UI+g2wuPx0D179tDZs2dTQRCiPvRdunShzz//PK2srKQej6ddlYHdbqdf fPEFHTFiBGUYJuoxAdBBgwbRFStW0JqaGup0OqnH46Eej4c6nU568uRJOm3aNMrzfNTtGYah/fv3 pw888AB96aWX6ObNm+l3331HT506RU+fPk1LSkrozp076fLly+lTTz1Fp06dSgcMGEANBkPU/aWl pdH/+7//o1artV3EXF9fT7ds2aJaSaWlpdGFCxfS6upq6vF4WqxcKKV0x44dESQ/adKkVrcLEoXd bqf79++nM2bMaJH8srOz6V//+ldaVVXV4nPg9/tpdXU1XbRoEc3Kyoq6P0II7d+/P/3LX/5Cjxw5 Quvq6mhDQwOtr6+nZ8+epZs3b6ZPP/00HTt2LC0sLGzx3IKktmXLFtVrrK+vp3/4wx9URUjwM2HC BHr48GFqt9tbLLstW7YothMEgb7wwgv0oYceku9DdnY2nThxIl24cCHdvXs3LSsro/X19bSyspJ+ ++239MUXX6STJ0+mFosl4jwEQaAPPvhgQkWRRtBJhEAgQJ977jk6bNiwVkkynDhGjhxJn3vuuZiU RiisViv98Y9/TPv169ciqUZTWnfccQf9+c9/TufNm0evv/56ajQa49pHez6ZmZn0pptuoq+//nq7 iFmSJLps2TJ699130759+7ZIFgBoYWEhvf322+lDDz1Et23bFnW/Xq+XDh06VKHw9+/f3+r5nDlz hs6fP5+OGDGixQo6/FNQUEAnTpxIFyxYENHCef/99+nkyZNpQUFBXGVMCKFms5nm5eVFbbm09hk2 bBi12+3yuTQ0NNBnnnmG3nPPPTGfT0pKCh03bhx94okn6LFjx6JWiKHbjB49mpaVlVGfz0c3btxI R44cGfGME0KowWBo8X1jGIYWFxfTpUuXxv1+aQR9GaG2tpZaLBbKcVybPjk5OfTcuXNxHfPll19u 8/GCn2ATMhEfnucpz/NUEASq0+mowWCgRqORpqSk0IyMDDpgwAB633330XfeeYeeOHGiXS2HIPbu 3UsNBkObzrdLly4tvrTvvPOOvO7o0aNjesEfeuihdpfj0aNHFYSfmZmZsHsUz0cQBPrKK68oru/j jz+mgiC0eZ8TJkxQLbd9+/bJ6xgMBrp06VKF7VNXV0eXLFlC+/fv3yopE0KoXq+nOTk59NFHH6Vl ZWWXFdfY7Q5KKKX0t7/9Lf72t79BQ2zYuXMnTp48CavVGnPnSLCDpLi4GFOmTIlr6Pf58+exYcMG OByONnc61tbWIjMzs309ygwDjuMgCAL0ej0MBgNMJhMyMzORmpqKjIwMpKenQ6fTgWGYhIZUNTQ0 YPXq1XFFRBBCYDKZMHjw4BZHc4qiiOXLl6O2thazZs1SnTZJLaRx27ZtqKurizuaQq/Xo7CwEFOn TpVHhXq9Xqxbtw61tbXw+XzyVGgdGiHAMLBYLOjevTvGjBmjyNZXV1eH5cuXx/18m81mpKWl4dpr r0VxcXHEOh6PB8uWLYPD4UBxcTGmTZum+i54PB4cOXIEmzdvxldffYWGhgbY7XYEAgHo9Xqkp6dj wIABmDJlijwQJRlzbbQEh9MJjaATFGbX2sABQkhCguXDR85FWxZP2F483ztLeauVRei5xjvBafD+ teUehZ9P+H0Inkf4//He72j3ON5BIvGcR/hoxtC/w/Oax3Nd8cxuQimF3++XKyxCCHieT8rsdPES NAcN7cbFnO04nISu1PJO9PW35x52xPl0lgqzo0bgxbNfQkjc83heLkj6kYQaNGjQcJlKEU1BBxGP 3xdvhdYRmcwutlrVcOWVb3tbFB25zZXwXBKSpFNeJRKSJOGxxx7D5s2bNbbQoCFJIQiCwjYJzv2p 0+nkTm29Xg+z2YyioiKMHz8+YWmAO04/awoagUAA+/btww8//KA95Ro0XCHYs2cP/vOf/3TqjkZZ QXeWhPeXquZ95plnsHXrVtjtdjmTWzBjmAYNGpIXHMfJ4YPBEFEAuPnmmzt9FAghmoIGAIwbNw7j xo1rcZ14ph/qyLnbEoVksbWSzX7rTN5oZzmXeCJkErHeZeNPBwn6SlbQ7X3YtU40DRo0dAQY0pQP WiNoDRo0aOh8olCO4vjpT3+qlYgGDRo0dBKwLIv/D8+D9exXJphJAAAAAElFTkSuQmCC "
     id="image10"
     x="-2.4030795"
     y="1.9224635" />
</svg>
