<?xml version="1.0" encoding="UTF-8" standalone="no"?>
<svg
   xmlns:dc="http://purl.org/dc/elements/1.1/"
   xmlns:cc="http://creativecommons.org/ns#"
   xmlns:rdf="http://www.w3.org/1999/02/22-rdf-syntax-ns#"
   xmlns:svg="http://www.w3.org/2000/svg"
   xmlns="http://www.w3.org/2000/svg"
   xmlns:xlink="http://www.w3.org/1999/xlink"
   xmlns:sodipodi="http://sodipodi.sourceforge.net/DTD/sodipodi-0.dtd"
   xmlns:inkscape="http://www.inkscape.org/namespaces/inkscape"
   width="29.216297mm"
   height="29.216297mm"
   viewBox="0 0 82.818027 82.818027"
   version="1.2"
   id="svg214"
   sodipodi:docname="Inhibition.svg"
   inkscape:version="0.92.4 (5da689c313, 2019-01-14)">
  <metadata
     id="metadata218">
    <rdf:RDF>
      <cc:Work
         rdf:about="">
        <dc:format>image/svg+xml</dc:format>
        <dc:type
           rdf:resource="http://purl.org/dc/dcmitype/StillImage" />
      </cc:Work>
    </rdf:RDF>
  </metadata>
  <sodipodi:namedview
     pagecolor="#ffffff"
     bordercolor="#666666"
     borderopacity="1"
     objecttolerance="10"
     gridtolerance="10"
     guidetolerance="10"
     inkscape:pageopacity="0"
     inkscape:pageshadow="2"
     inkscape:window-width="834"
     inkscape:window-height="480"
     id="namedview216"
     showgrid="false"
     inkscape:zoom="0.30360271"
     inkscape:cx="55.878571"
     inkscape:cy="54.545228"
     inkscape:window-x="0"
     inkscape:window-y="27"
     inkscape:window-maximized="0"
     inkscape:current-layer="svg214" />
  <title
     id="title2">OMEdit - OpenModelica Connection Editor</title>
  <desc
     id="desc4">Generated by OMEdit - OpenModelica Connection Editor</desc>
  <defs
     id="defs68">
    <linearGradient
       gradientUnits="userSpaceOnUse"
       x1="0"
       y1="-100"
       x2="0"
       y2="100"
       id="gradient1">
      <stop
         offset="0"
         stop-color="#c8c8c8"
         stop-opacity="1"
         id="stop6" />
      <stop
         offset="0.5"
         stop-color="#f8f8f8"
         stop-opacity="1"
         id="stop8" />
      <stop
         offset="1"
         stop-color="#c8c8c8"
         stop-opacity="1"
         id="stop10" />
    </linearGradient>
    <radialGradient
       gradientUnits="userSpaceOnUse"
       cx="-11"
       cy="10"
       r="24"
       fx="-11"
       fy="10"
       id="gradient2">
      <stop
         offset="0"
         stop-color="#4e9a06"
         stop-opacity="1"
         id="stop13" />
      <stop
         offset="1"
         stop-color="#8f5902"
         stop-opacity="1"
         id="stop15" />
    </radialGradient>
    <radialGradient
       gradientUnits="userSpaceOnUse"
       cx="-11"
       cy="10"
       r="24"
       fx="-11"
       fy="10"
       id="gradient3">
      <stop
         offset="0"
         stop-color="#4e9a06"
         stop-opacity="1"
         id="stop18" />
      <stop
         offset="1"
         stop-color="#8f5902"
         stop-opacity="1"
         id="stop20" />
    </radialGradient>
    <radialGradient
       gradientUnits="userSpaceOnUse"
       cx="-11"
       cy="10"
       r="24"
       fx="-11"
       fy="10"
       id="gradient4">
      <stop
         offset="0"
         stop-color="#4e9a06"
         stop-opacity="1"
         id="stop23" />
      <stop
         offset="1"
         stop-color="#8f5902"
         stop-opacity="1"
         id="stop25" />
    </radialGradient>
    <radialGradient
       gradientUnits="userSpaceOnUse"
       cx="-11"
       cy="10"
       r="24"
       fx="-11"
       fy="10"
       id="gradient5">
      <stop
         offset="0"
         stop-color="#4e9a06"
         stop-opacity="1"
         id="stop28" />
      <stop
         offset="1"
         stop-color="#8f5902"
         stop-opacity="1"
         id="stop30" />
    </radialGradient>
    <radialGradient
       gradientUnits="userSpaceOnUse"
       cx="-11"
       cy="11"
       r="24"
       fx="-11"
       fy="11"
       id="gradient6">
      <stop
         offset="0"
         stop-color="#4e9a06"
         stop-opacity="1"
         id="stop33" />
      <stop
         offset="1"
         stop-color="#8f5902"
         stop-opacity="1"
         id="stop35" />
    </radialGradient>
    <radialGradient
       gradientUnits="userSpaceOnUse"
       cx="23"
       cy="-24"
       r="72"
       fx="23"
       fy="-24"
       id="gradient7">
      <stop
         offset="0"
         stop-color="#85320e"
         stop-opacity="1"
         id="stop38" />
      <stop
         offset="1"
         stop-color="#000000"
         stop-opacity="1"
         id="stop40" />
    </radialGradient>
    <radialGradient
       gradientUnits="userSpaceOnUse"
       cx="-11"
       cy="11"
       r="24"
       fx="-11"
       fy="11"
       id="gradient8">
      <stop
         offset="0"
         stop-color="#4e9a06"
         stop-opacity="1"
         id="stop43" />
      <stop
         offset="1"
         stop-color="#8f5902"
         stop-opacity="1"
         id="stop45" />
    </radialGradient>
    <radialGradient
       gradientUnits="userSpaceOnUse"
       cx="-11"
       cy="11"
       r="24"
       fx="-11"
       fy="11"
       id="gradient9">
      <stop
         offset="0"
         stop-color="#4e9a06"
         stop-opacity="1"
         id="stop48" />
      <stop
         offset="1"
         stop-color="#8f5902"
         stop-opacity="1"
         id="stop50" />
    </radialGradient>
    <radialGradient
       gradientUnits="userSpaceOnUse"
       cx="-11"
       cy="11"
       r="24"
       fx="-11"
       fy="11"
       id="gradient10">
      <stop
         offset="0"
         stop-color="#4e9a06"
         stop-opacity="1"
         id="stop53" />
      <stop
         offset="1"
         stop-color="#8f5902"
         stop-opacity="1"
         id="stop55" />
    </radialGradient>
    <radialGradient
       gradientUnits="userSpaceOnUse"
       cx="-11"
       cy="11"
       r="24"
       fx="-11"
       fy="11"
       id="gradient11">
      <stop
         offset="0"
         stop-color="#4e9a06"
         stop-opacity="1"
         id="stop58" />
      <stop
         offset="1"
         stop-color="#8f5902"
         stop-opacity="1"
         id="stop60" />
    </radialGradient>
    <radialGradient
       gradientUnits="userSpaceOnUse"
       cx="-11"
       cy="11"
       r="24"
       fx="-11"
       fy="11"
       id="gradient12">
      <stop
         offset="0"
         stop-color="#4e9a06"
         stop-opacity="1"
         id="stop63" />
      <stop
         offset="1"
         stop-color="#8f5902"
         stop-opacity="1"
         id="stop65" />
    </radialGradient>
    <linearGradient
       inkscape:collect="always"
       xlink:href="#gradient1"
       id="linearGradient220"
       gradientUnits="userSpaceOnUse"
       x1="0"
       y1="-100"
       x2="0"
       y2="100" />
    <linearGradient
       inkscape:collect="always"
       xlink:href="#gradient1"
       id="linearGradient222"
       gradientUnits="userSpaceOnUse"
       x1="0"
       y1="-100"
       x2="0"
       y2="100" />
    <radialGradient
       inkscape:collect="always"
       xlink:href="#gradient2"
       id="radialGradient224"
       gradientUnits="userSpaceOnUse"
       cx="-11"
       cy="10"
       fx="-11"
       fy="10"
       r="24" />
    <radialGradient
       inkscape:collect="always"
       xlink:href="#gradient2"
       id="radialGradient226"
       gradientUnits="userSpaceOnUse"
       cx="-11"
       cy="10"
       fx="-11"
       fy="10"
       r="24" />
    <radialGradient
       inkscape:collect="always"
       xlink:href="#gradient3"
       id="radialGradient228"
       gradientUnits="userSpaceOnUse"
       cx="-11"
       cy="10"
       fx="-11"
       fy="10"
       r="24" />
    <radialGradient
       inkscape:collect="always"
       xlink:href="#gradient3"
       id="radialGradient230"
       gradientUnits="userSpaceOnUse"
       cx="-11"
       cy="10"
       fx="-11"
       fy="10"
       r="24" />
    <radialGradient
       inkscape:collect="always"
       xlink:href="#gradient4"
       id="radialGradient232"
       gradientUnits="userSpaceOnUse"
       cx="-11"
       cy="10"
       fx="-11"
       fy="10"
       r="24" />
    <radialGradient
       inkscape:collect="always"
       xlink:href="#gradient4"
       id="radialGradient234"
       gradientUnits="userSpaceOnUse"
       cx="-11"
       cy="10"
       fx="-11"
       fy="10"
       r="24" />
    <radialGradient
       inkscape:collect="always"
       xlink:href="#gradient5"
       id="radialGradient236"
       gradientUnits="userSpaceOnUse"
       cx="-11"
       cy="10"
       fx="-11"
       fy="10"
       r="24" />
    <radialGradient
       inkscape:collect="always"
       xlink:href="#gradient5"
       id="radialGradient238"
       gradientUnits="userSpaceOnUse"
       cx="-11"
       cy="10"
       fx="-11"
       fy="10"
       r="24" />
    <radialGradient
       inkscape:collect="always"
       xlink:href="#gradient6"
       id="radialGradient240"
       gradientUnits="userSpaceOnUse"
       cx="-11"
       cy="11"
       fx="-11"
       fy="11"
       r="24" />
    <radialGradient
       inkscape:collect="always"
       xlink:href="#gradient6"
       id="radialGradient242"
       gradientUnits="userSpaceOnUse"
       cx="-11"
       cy="11"
       fx="-11"
       fy="11"
       r="24" />
    <radialGradient
       inkscape:collect="always"
       xlink:href="#gradient7"
       id="radialGradient244"
       gradientUnits="userSpaceOnUse"
       cx="23"
       cy="-24"
       fx="23"
       fy="-24"
       r="72" />
    <radialGradient
       inkscape:collect="always"
       xlink:href="#gradient7"
       id="radialGradient246"
       gradientUnits="userSpaceOnUse"
       cx="23"
       cy="-24"
       fx="23"
       fy="-24"
       r="72" />
    <radialGradient
       inkscape:collect="always"
       xlink:href="#gradient8"
       id="radialGradient248"
       gradientUnits="userSpaceOnUse"
       cx="-11"
       cy="11"
       fx="-11"
       fy="11"
       r="24" />
    <radialGradient
       inkscape:collect="always"
       xlink:href="#gradient8"
       id="radialGradient250"
       gradientUnits="userSpaceOnUse"
       cx="-11"
       cy="11"
       fx="-11"
       fy="11"
       r="24" />
    <radialGradient
       inkscape:collect="always"
       xlink:href="#gradient9"
       id="radialGradient252"
       gradientUnits="userSpaceOnUse"
       cx="-11"
       cy="11"
       fx="-11"
       fy="11"
       r="24" />
    <radialGradient
       inkscape:collect="always"
       xlink:href="#gradient9"
       id="radialGradient254"
       gradientUnits="userSpaceOnUse"
       cx="-11"
       cy="11"
       fx="-11"
       fy="11"
       r="24" />
    <radialGradient
       inkscape:collect="always"
       xlink:href="#gradient10"
       id="radialGradient256"
       gradientUnits="userSpaceOnUse"
       cx="-11"
       cy="11"
       fx="-11"
       fy="11"
       r="24" />
    <radialGradient
       inkscape:collect="always"
       xlink:href="#gradient10"
       id="radialGradient258"
       gradientUnits="userSpaceOnUse"
       cx="-11"
       cy="11"
       fx="-11"
       fy="11"
       r="24" />
    <radialGradient
       inkscape:collect="always"
       xlink:href="#gradient11"
       id="radialGradient260"
       gradientUnits="userSpaceOnUse"
       cx="-11"
       cy="11"
       fx="-11"
       fy="11"
       r="24" />
    <radialGradient
       inkscape:collect="always"
       xlink:href="#gradient11"
       id="radialGradient262"
       gradientUnits="userSpaceOnUse"
       cx="-11"
       cy="11"
       fx="-11"
       fy="11"
       r="24" />
    <radialGradient
       inkscape:collect="always"
       xlink:href="#gradient12"
       id="radialGradient264"
       gradientUnits="userSpaceOnUse"
       cx="-11"
       cy="11"
       fx="-11"
       fy="11"
       r="24" />
    <radialGradient
       inkscape:collect="always"
       xlink:href="#gradient12"
       id="radialGradient266"
       gradientUnits="userSpaceOnUse"
       cx="-11"
       cy="11"
       fx="-11"
       fy="11"
       r="24" />
  </defs>
  <g
     id="g212"
     transform="matrix(0.15,0,0,0.15,-2.2409868,-2.2409868)"
     style="fill:none;fill-rule:evenodd;stroke:#000000;stroke-width:1;stroke-linecap:square;stroke-linejoin:bevel">
    <g
       transform="translate(-127,1)"
       font-size="11"
       font-weight="400"
       font-style="normal"
       id="g70"
       style="font-style:normal;font-weight:400;font-size:11px;font-family:Cantarell;fill:none;stroke:#000000;stroke-width:1;stroke-linecap:square;stroke-linejoin:bevel;stroke-opacity:1" />
    <g
       transform="translate(-127,1)"
       font-size="11"
       font-weight="400"
       font-style="normal"
       id="g72"
       style="font-style:normal;font-weight:400;font-size:11px;font-family:Cantarell;fill:none;stroke:#000000;stroke-width:1;stroke-linecap:square;stroke-linejoin:bevel;stroke-opacity:1" />
    <g
       transform="translate(-127,1)"
       font-size="11"
       font-weight="400"
       font-style="normal"
       id="g74"
       style="font-style:normal;font-weight:400;font-size:11px;font-family:Cantarell;fill:none;stroke:#000000;stroke-width:1;stroke-linecap:square;stroke-linejoin:bevel;stroke-opacity:1" />
    <g
       transform="matrix(2.74762,0,0,-2.74762,291,291)"
       font-size="11"
       font-weight="400"
       font-style="normal"
       id="g76"
       style="font-style:normal;font-weight:400;font-size:11px;font-family:Cantarell;fill:none;stroke:#000000;stroke-width:1;stroke-linecap:square;stroke-linejoin:bevel;stroke-opacity:1" />
    <g
       stroke-miterlimit="2"
       transform="matrix(2.74762,0,0,-2.74762,291,291)"
       font-size="11"
       font-weight="400"
       font-style="normal"
       id="g80"
       style="font-style:normal;font-weight:400;font-size:11px;font-family:Cantarell;fill:url(#linearGradient222);stroke:#c8c8c8;stroke-width:0.94488198;stroke-linecap:square;stroke-linejoin:miter;stroke-miterlimit:2;stroke-opacity:1">
      <path
         d="m -100,-75 c 0,-13.8071 11.1929,-25 25,-25 H 75 c 13.8071,0 25,11.1929 25,25 V 75 c 0,13.8071 -11.1929,25 -25,25 H -75 c -13.8071,0 -25,-11.1929 -25,-25 V -75"
         id="path78"
         style="vector-effect:non-scaling-stroke;fill:url(#linearGradient220);fill-rule:evenodd"
         inkscape:connector-curvature="0" />
    </g>
    <g
       transform="matrix(2.74762,0,0,-2.74762,291,291)"
       font-size="11"
       font-weight="400"
       font-style="normal"
       id="g82"
       style="font-style:normal;font-weight:400;font-size:11px;font-family:Cantarell;fill:none;stroke:#000000;stroke-width:1;stroke-linecap:square;stroke-linejoin:bevel;stroke-opacity:1" />
    <g
       transform="matrix(2.74762,0,0,-2.74762,291,291)"
       font-size="11"
       font-weight="400"
       font-style="normal"
       id="g84"
       style="font-style:normal;font-weight:400;font-size:11px;font-family:Cantarell;fill:none;stroke:#000000;stroke-width:1;stroke-linecap:square;stroke-linejoin:bevel;stroke-opacity:1" />
    <g
       stroke-miterlimit="2"
       transform="matrix(2.74762,0,0,-2.74762,291,291)"
       font-size="11"
       font-weight="400"
       font-style="normal"
       id="g88"
       style="font-style:normal;font-weight:400;font-size:11px;font-family:Cantarell;fill:none;stroke:#808080;stroke-width:0.94488198;stroke-linecap:square;stroke-linejoin:miter;stroke-miterlimit:2;stroke-opacity:1">
      <path
         d="m -100,-75 c 0,-13.8071 11.1929,-25 25,-25 H 75 c 13.8071,0 25,11.1929 25,25 V 75 c 0,13.8071 -11.1929,25 -25,25 H -75 c -13.8071,0 -25,-11.1929 -25,-25 V -75"
         id="path86"
         inkscape:connector-curvature="0"
         style="vector-effect:non-scaling-stroke;fill-rule:evenodd" />
    </g>
    <g
       transform="matrix(2.74762,0,0,-2.74762,291,291)"
       font-size="11"
       font-weight="400"
       font-style="normal"
       id="g90"
       style="font-style:normal;font-weight:400;font-size:11px;font-family:Cantarell;fill:none;stroke:#000000;stroke-width:1;stroke-linecap:square;stroke-linejoin:bevel;stroke-opacity:1" />
    <g
       transform="matrix(2.74762,0,0,-2.74762,291.551,141.963)"
       font-size="11"
       font-weight="400"
       font-style="normal"
       id="g92"
       style="font-style:normal;font-weight:400;font-size:11px;font-family:Cantarell;fill:none;stroke:#000000;stroke-width:1;stroke-linecap:square;stroke-linejoin:bevel;stroke-opacity:1" />
    <g
       transform="matrix(2.74762,0,0,-2.74762,291.551,141.963)"
       font-size="11"
       font-weight="400"
       font-style="normal"
       id="g96"
       style="font-style:normal;font-weight:400;font-size:11px;font-family:Cantarell;fill:none;stroke:#000000;stroke-width:2.83465004;stroke-linecap:square;stroke-linejoin:bevel;stroke-opacity:1">
      <path
         d="m 7.135,-26 7.5,8 c 0,0 7.5,8 20,11 l 12.5,3"
         id="path94"
         inkscape:connector-curvature="0"
         style="vector-effect:non-scaling-stroke;fill-rule:evenodd" />
    </g>
    <g
       transform="matrix(2.74762,0,0,-2.74762,291.551,141.963)"
       font-size="11"
       font-weight="400"
       font-style="normal"
       id="g100"
       style="font-style:normal;font-weight:400;font-size:11px;font-family:Cantarell;fill:#000000;fill-opacity:1;stroke:#000000;stroke-width:2.83465004;stroke-linecap:square;stroke-linejoin:bevel;stroke-opacity:1">
      <path
         d="M 47.135,-4 32.753,0.261301 36.2536,-14.3245 47.135,-4"
         id="path98"
         inkscape:connector-curvature="0"
         style="vector-effect:non-scaling-stroke;fill-rule:evenodd" />
    </g>
    <g
       transform="matrix(2.74762,0,0,-2.74762,291.551,141.963)"
       font-size="11"
       font-weight="400"
       font-style="normal"
       id="g102"
       style="font-style:normal;font-weight:400;font-size:11px;font-family:Cantarell;fill:none;stroke:#000000;stroke-width:2.83465004;stroke-linecap:square;stroke-linejoin:bevel;stroke-opacity:1" />
    <g
       transform="matrix(2.74762,0,0,-2.74762,291.551,141.963)"
       font-size="11"
       font-weight="400"
       font-style="normal"
       id="g104"
       style="font-style:normal;font-weight:400;font-size:11px;font-family:Cantarell;fill:none;stroke:#000000;stroke-width:1;stroke-linecap:square;stroke-linejoin:bevel;stroke-opacity:1" />
    <g
       transform="matrix(2.74762,0,0,-2.74762,282.757,241.543)"
       font-size="11"
       font-weight="400"
       font-style="normal"
       id="g106"
       style="font-style:normal;font-weight:400;font-size:11px;font-family:Cantarell;fill:none;stroke:#000000;stroke-width:1;stroke-linecap:square;stroke-linejoin:bevel;stroke-opacity:1" />
    <g
       stroke-miterlimit="2"
       transform="matrix(2.74762,0,0,2.74762,282.757,186.59)"
       font-size="11"
       font-weight="400"
       font-style="normal"
       id="g110"
       style="font-style:normal;font-weight:400;font-size:11px;font-family:Cantarell;fill:url(#radialGradient226);stroke:#8f5902;stroke-width:2.83465004;stroke-linecap:square;stroke-linejoin:miter;stroke-miterlimit:2;stroke-dasharray:2.83465, 5.66929;stroke-dashoffset:0;stroke-opacity:1">
      <path
         d="m 1,10 c 0,6.6274 -5.37258,12 -12,12 -6.6274,0 -12,-5.3726 -12,-12 0,-6.62742 5.3726,-12 12,-12 6.62742,0 12,5.37258 12,12"
         id="path108"
         style="vector-effect:non-scaling-stroke;fill:url(#radialGradient224);fill-rule:evenodd"
         inkscape:connector-curvature="0" />
    </g>
    <g
       transform="matrix(2.74762,0,0,-2.74762,282.757,241.543)"
       font-size="11"
       font-weight="400"
       font-style="normal"
       id="g112"
       style="font-style:normal;font-weight:400;font-size:11px;font-family:Cantarell;fill:none;stroke:#000000;stroke-width:1;stroke-linecap:square;stroke-linejoin:bevel;stroke-opacity:1" />
    <g
       transform="matrix(2.74762,0,0,-2.74762,172.852,483.333)"
       font-size="11"
       font-weight="400"
       font-style="normal"
       id="g114"
       style="font-style:normal;font-weight:400;font-size:11px;font-family:Cantarell;fill:none;stroke:#000000;stroke-width:1;stroke-linecap:square;stroke-linejoin:bevel;stroke-opacity:1" />
    <g
       stroke-miterlimit="2"
       transform="matrix(2.74762,0,0,2.74762,172.852,428.381)"
       font-size="11"
       font-weight="400"
       font-style="normal"
       id="g118"
       style="font-style:normal;font-weight:400;font-size:11px;font-family:Cantarell;fill:url(#radialGradient230);stroke:#8f5902;stroke-width:2.83465004;stroke-linecap:square;stroke-linejoin:miter;stroke-miterlimit:2;stroke-dasharray:2.83465, 5.66929;stroke-dashoffset:0;stroke-opacity:1">
      <path
         d="m 1,10 c 0,6.6274 -5.37258,12 -12,12 -6.6274,0 -12,-5.3726 -12,-12 0,-6.62742 5.3726,-12 12,-12 6.62742,0 12,5.37258 12,12"
         id="path116"
         style="vector-effect:non-scaling-stroke;fill:url(#radialGradient228);fill-rule:evenodd"
         inkscape:connector-curvature="0" />
    </g>
    <g
       transform="matrix(2.74762,0,0,-2.74762,172.852,483.333)"
       font-size="11"
       font-weight="400"
       font-style="normal"
       id="g120"
       style="font-style:normal;font-weight:400;font-size:11px;font-family:Cantarell;fill:none;stroke:#000000;stroke-width:1;stroke-linecap:square;stroke-linejoin:bevel;stroke-opacity:1" />
    <g
       transform="matrix(2.74762,0,0,-2.74762,255.281,494.324)"
       font-size="11"
       font-weight="400"
       font-style="normal"
       id="g122"
       style="font-style:normal;font-weight:400;font-size:11px;font-family:Cantarell;fill:none;stroke:#000000;stroke-width:1;stroke-linecap:square;stroke-linejoin:bevel;stroke-opacity:1" />
    <g
       stroke-miterlimit="2"
       transform="matrix(2.74762,0,0,2.74762,255.281,439.371)"
       font-size="11"
       font-weight="400"
       font-style="normal"
       id="g126"
       style="font-style:normal;font-weight:400;font-size:11px;font-family:Cantarell;fill:url(#radialGradient234);stroke:#8f5902;stroke-width:2.83465004;stroke-linecap:square;stroke-linejoin:miter;stroke-miterlimit:2;stroke-dasharray:2.83465, 5.66929;stroke-dashoffset:0;stroke-opacity:1">
      <path
         d="m 1,10 c 0,6.6274 -5.37258,12 -12,12 -6.6274,0 -12,-5.3726 -12,-12 0,-6.62742 5.3726,-12 12,-12 6.62742,0 12,5.37258 12,12"
         id="path124"
         style="vector-effect:non-scaling-stroke;fill:url(#radialGradient232);fill-rule:evenodd"
         inkscape:connector-curvature="0" />
    </g>
    <g
       transform="matrix(2.74762,0,0,-2.74762,255.281,494.324)"
       font-size="11"
       font-weight="400"
       font-style="normal"
       id="g128"
       style="font-style:normal;font-weight:400;font-size:11px;font-family:Cantarell;fill:none;stroke:#000000;stroke-width:1;stroke-linecap:square;stroke-linejoin:bevel;stroke-opacity:1" />
    <g
       transform="matrix(2.74762,0,0,-2.74762,321.224,455.857)"
       font-size="11"
       font-weight="400"
       font-style="normal"
       id="g130"
       style="font-style:normal;font-weight:400;font-size:11px;font-family:Cantarell;fill:none;stroke:#000000;stroke-width:1;stroke-linecap:square;stroke-linejoin:bevel;stroke-opacity:1" />
    <g
       stroke-miterlimit="2"
       transform="matrix(2.74762,0,0,2.74762,321.224,400.905)"
       font-size="11"
       font-weight="400"
       font-style="normal"
       id="g134"
       style="font-style:normal;font-weight:400;font-size:11px;font-family:Cantarell;fill:url(#radialGradient238);stroke:#8f5902;stroke-width:2.83465004;stroke-linecap:square;stroke-linejoin:miter;stroke-miterlimit:2;stroke-dasharray:2.83465, 5.66929;stroke-dashoffset:0;stroke-opacity:1">
      <path
         d="m 1,10 c 0,6.6274 -5.37258,12 -12,12 -6.6274,0 -12,-5.3726 -12,-12 0,-6.62742 5.3726,-12 12,-12 6.62742,0 12,5.37258 12,12"
         id="path132"
         style="vector-effect:non-scaling-stroke;fill:url(#radialGradient236);fill-rule:evenodd"
         inkscape:connector-curvature="0" />
    </g>
    <g
       transform="matrix(2.74762,0,0,-2.74762,321.224,455.857)"
       font-size="11"
       font-weight="400"
       font-style="normal"
       id="g136"
       style="font-style:normal;font-weight:400;font-size:11px;font-family:Cantarell;fill:none;stroke:#000000;stroke-width:1;stroke-linecap:square;stroke-linejoin:bevel;stroke-opacity:1" />
    <g
       transform="matrix(2.74762,0,0,-2.74762,200.329,236.048)"
       font-size="11"
       font-weight="400"
       font-style="normal"
       id="g138"
       style="font-style:normal;font-weight:400;font-size:11px;font-family:Cantarell;fill:none;stroke:#000000;stroke-width:1;stroke-linecap:square;stroke-linejoin:bevel;stroke-opacity:1" />
    <g
       stroke-miterlimit="2"
       transform="matrix(2.74762,0,0,2.74762,200.329,175.6)"
       font-size="11"
       font-weight="400"
       font-style="normal"
       id="g142"
       style="font-style:normal;font-weight:400;font-size:11px;font-family:Cantarell;fill:url(#radialGradient242);stroke:#8f5902;stroke-width:2.83465004;stroke-linecap:square;stroke-linejoin:miter;stroke-miterlimit:2;stroke-dasharray:2.83465, 5.66929;stroke-dashoffset:0;stroke-opacity:1">
      <path
         d="m 1,11 c 0,6.0751 -5.37258,11 -12,11 -6.6274,0 -12,-4.9249 -12,-11 0,-6.07513 5.3726,-11 12,-11 6.62742,0 12,4.92487 12,11"
         id="path140"
         style="vector-effect:non-scaling-stroke;fill:url(#radialGradient240);fill-rule:evenodd"
         inkscape:connector-curvature="0" />
    </g>
    <g
       transform="matrix(2.74762,0,0,-2.74762,200.329,236.048)"
       font-size="11"
       font-weight="400"
       font-style="normal"
       id="g144"
       style="font-style:normal;font-weight:400;font-size:11px;font-family:Cantarell;fill:none;stroke:#000000;stroke-width:1;stroke-linecap:square;stroke-linejoin:bevel;stroke-opacity:1" />
    <g
       transform="matrix(2.74762,0,0,-2.74762,134.386,269.019)"
       font-size="11"
       font-weight="400"
       font-style="normal"
       id="g146"
       style="font-style:normal;font-weight:400;font-size:11px;font-family:Cantarell;fill:none;stroke:#000000;stroke-width:1;stroke-linecap:square;stroke-linejoin:bevel;stroke-opacity:1" />
    <g
       stroke-miterlimit="2"
       transform="matrix(2.74762,0,0,2.74762,134.386,400.905)"
       font-size="11"
       font-weight="400"
       font-style="normal"
       id="g150"
       style="font-style:normal;font-weight:400;font-size:11px;font-family:Cantarell;fill:url(#radialGradient246);stroke:#000000;stroke-width:1.88976002;stroke-linecap:square;stroke-linejoin:miter;stroke-miterlimit:2;stroke-opacity:1">
      <path
         d="M 59,-24 C 59,-4.11775 42.8823,12 23,12 3.11775,12 -13,-4.11775 -13,-24 c 0,-19.8823 16.11775,-36 36,-36 19.8823,0 36,16.1177 36,36"
         id="path148"
         style="vector-effect:non-scaling-stroke;fill:url(#radialGradient244);fill-rule:evenodd"
         inkscape:connector-curvature="0" />
    </g>
    <g
       transform="matrix(2.74762,0,0,-2.74762,134.386,269.019)"
       font-size="11"
       font-weight="400"
       font-style="normal"
       id="g152"
       style="font-style:normal;font-weight:400;font-size:11px;font-family:Cantarell;fill:none;stroke:#000000;stroke-width:1;stroke-linecap:square;stroke-linejoin:bevel;stroke-opacity:1" />
    <g
       transform="matrix(2.74762,0,0,-2.74762,128.89,274.514)"
       font-size="11"
       font-weight="400"
       font-style="normal"
       id="g154"
       style="font-style:normal;font-weight:400;font-size:11px;font-family:Cantarell;fill:none;stroke:#000000;stroke-width:1;stroke-linecap:square;stroke-linejoin:bevel;stroke-opacity:1" />
    <g
       stroke-miterlimit="2"
       transform="matrix(2.74762,0,0,2.74762,128.89,214.067)"
       font-size="11"
       font-weight="400"
       font-style="normal"
       id="g158"
       style="font-style:normal;font-weight:400;font-size:11px;font-family:Cantarell;fill:url(#radialGradient250);stroke:#8f5902;stroke-width:2.83465004;stroke-linecap:square;stroke-linejoin:miter;stroke-miterlimit:2;stroke-dasharray:2.83465, 5.66929;stroke-dashoffset:0;stroke-opacity:1">
      <path
         d="m 1,11 c 0,6.0751 -5.37258,11 -12,11 -6.6274,0 -12,-4.9249 -12,-11 0,-6.07513 5.3726,-11 12,-11 6.62742,0 12,4.92487 12,11"
         id="path156"
         style="vector-effect:non-scaling-stroke;fill:url(#radialGradient248);fill-rule:evenodd"
         inkscape:connector-curvature="0" />
    </g>
    <g
       transform="matrix(2.74762,0,0,-2.74762,128.89,274.514)"
       font-size="11"
       font-weight="400"
       font-style="normal"
       id="g160"
       style="font-style:normal;font-weight:400;font-size:11px;font-family:Cantarell;fill:none;stroke:#000000;stroke-width:1;stroke-linecap:square;stroke-linejoin:bevel;stroke-opacity:1" />
    <g
       transform="matrix(2.74762,0,0,-2.74762,95.919,351.448)"
       font-size="11"
       font-weight="400"
       font-style="normal"
       id="g162"
       style="font-style:normal;font-weight:400;font-size:11px;font-family:Cantarell;fill:none;stroke:#000000;stroke-width:1;stroke-linecap:square;stroke-linejoin:bevel;stroke-opacity:1" />
    <g
       stroke-miterlimit="2"
       transform="matrix(2.74762,0,0,2.74762,95.919,291)"
       font-size="11"
       font-weight="400"
       font-style="normal"
       id="g166"
       style="font-style:normal;font-weight:400;font-size:11px;font-family:Cantarell;fill:url(#radialGradient254);stroke:#8f5902;stroke-width:2.83465004;stroke-linecap:square;stroke-linejoin:miter;stroke-miterlimit:2;stroke-dasharray:2.83465, 5.66929;stroke-dashoffset:0;stroke-opacity:1">
      <path
         d="m 1,11 c 0,6.0751 -5.37258,11 -12,11 -6.6274,0 -12,-4.9249 -12,-11 0,-6.07513 5.3726,-11 12,-11 6.62742,0 12,4.92487 12,11"
         id="path164"
         style="vector-effect:non-scaling-stroke;fill:url(#radialGradient252);fill-rule:evenodd"
         inkscape:connector-curvature="0" />
    </g>
    <g
       transform="matrix(2.74762,0,0,-2.74762,95.919,351.448)"
       font-size="11"
       font-weight="400"
       font-style="normal"
       id="g168"
       style="font-style:normal;font-weight:400;font-size:11px;font-family:Cantarell;fill:none;stroke:#000000;stroke-width:1;stroke-linecap:square;stroke-linejoin:bevel;stroke-opacity:1" />
    <g
       transform="matrix(2.74762,0,0,-2.74762,112.405,428.381)"
       font-size="11"
       font-weight="400"
       font-style="normal"
       id="g170"
       style="font-style:normal;font-weight:400;font-size:11px;font-family:Cantarell;fill:none;stroke:#000000;stroke-width:1;stroke-linecap:square;stroke-linejoin:bevel;stroke-opacity:1" />
    <g
       stroke-miterlimit="2"
       transform="matrix(2.74762,0,0,2.74762,112.405,367.933)"
       font-size="11"
       font-weight="400"
       font-style="normal"
       id="g174"
       style="font-style:normal;font-weight:400;font-size:11px;font-family:Cantarell;fill:url(#radialGradient258);stroke:#8f5902;stroke-width:2.83465004;stroke-linecap:square;stroke-linejoin:miter;stroke-miterlimit:2;stroke-dasharray:2.83465, 5.66929;stroke-dashoffset:0;stroke-opacity:1">
      <path
         d="m 1,11 c 0,6.0751 -5.37258,11 -12,11 -6.6274,0 -12,-4.9249 -12,-11 0,-6.07513 5.3726,-11 12,-11 6.62742,0 12,4.92487 12,11"
         id="path172"
         style="vector-effect:non-scaling-stroke;fill:url(#radialGradient256);fill-rule:evenodd"
         inkscape:connector-curvature="0" />
    </g>
    <g
       transform="matrix(2.74762,0,0,-2.74762,112.405,428.381)"
       font-size="11"
       font-weight="400"
       font-style="normal"
       id="g176"
       style="font-style:normal;font-weight:400;font-size:11px;font-family:Cantarell;fill:none;stroke:#000000;stroke-width:1;stroke-linecap:square;stroke-linejoin:bevel;stroke-opacity:1" />
    <g
       transform="matrix(2.74762,0,0,-2.74762,359.69,384.419)"
       font-size="11"
       font-weight="400"
       font-style="normal"
       id="g178"
       style="font-style:normal;font-weight:400;font-size:11px;font-family:Cantarell;fill:none;stroke:#000000;stroke-width:1;stroke-linecap:square;stroke-linejoin:bevel;stroke-opacity:1" />
    <g
       stroke-miterlimit="2"
       transform="matrix(2.74762,0,0,2.74762,359.69,323.971)"
       font-size="11"
       font-weight="400"
       font-style="normal"
       id="g182"
       style="font-style:normal;font-weight:400;font-size:11px;font-family:Cantarell;fill:url(#radialGradient262);stroke:#8f5902;stroke-width:2.83465004;stroke-linecap:square;stroke-linejoin:miter;stroke-miterlimit:2;stroke-dasharray:2.83465, 5.66929;stroke-dashoffset:0;stroke-opacity:1">
      <path
         d="m 1,11 c 0,6.0751 -5.37258,11 -12,11 -6.6274,0 -12,-4.9249 -12,-11 0,-6.07513 5.3726,-11 12,-11 6.62742,0 12,4.92487 12,11"
         id="path180"
         style="vector-effect:non-scaling-stroke;fill:url(#radialGradient260);fill-rule:evenodd"
         inkscape:connector-curvature="0" />
    </g>
    <g
       transform="matrix(2.74762,0,0,-2.74762,359.69,384.419)"
       font-size="11"
       font-weight="400"
       font-style="normal"
       id="g184"
       style="font-style:normal;font-weight:400;font-size:11px;font-family:Cantarell;fill:none;stroke:#000000;stroke-width:1;stroke-linecap:square;stroke-linejoin:bevel;stroke-opacity:1" />
    <g
       transform="matrix(2.74762,0,0,-2.74762,343.205,301.99)"
       font-size="11"
       font-weight="400"
       font-style="normal"
       id="g186"
       style="font-style:normal;font-weight:400;font-size:11px;font-family:Cantarell;fill:none;stroke:#000000;stroke-width:1;stroke-linecap:square;stroke-linejoin:bevel;stroke-opacity:1" />
    <g
       stroke-miterlimit="2"
       transform="matrix(2.74762,0,0,2.74762,343.205,241.543)"
       font-size="11"
       font-weight="400"
       font-style="normal"
       id="g190"
       style="font-style:normal;font-weight:400;font-size:11px;font-family:Cantarell;fill:url(#radialGradient266);stroke:#8f5902;stroke-width:2.83465004;stroke-linecap:square;stroke-linejoin:miter;stroke-miterlimit:2;stroke-dasharray:2.83465, 5.66929;stroke-dashoffset:0;stroke-opacity:1">
      <path
         d="m 1,11 c 0,6.0751 -5.37258,11 -12,11 -6.6274,0 -12,-4.9249 -12,-11 0,-6.07513 5.3726,-11 12,-11 6.62742,0 12,4.92487 12,11"
         id="path188"
         style="vector-effect:non-scaling-stroke;fill:url(#radialGradient264);fill-rule:evenodd"
         inkscape:connector-curvature="0" />
    </g>
    <g
       transform="matrix(2.74762,0,0,-2.74762,343.205,301.99)"
       font-size="11"
       font-weight="400"
       font-style="normal"
       id="g192"
       style="font-style:normal;font-weight:400;font-size:11px;font-family:Cantarell;fill:none;stroke:#000000;stroke-width:1;stroke-linecap:square;stroke-linejoin:bevel;stroke-opacity:1" />
    <g
       transform="matrix(2.74762,0,0,-2.74762,506.227,136.063)"
       font-size="11"
       font-weight="400"
       font-style="normal"
       id="g194"
       style="font-style:normal;font-weight:400;font-size:11px;font-family:Cantarell;fill:none;stroke:#000000;stroke-width:1;stroke-linecap:square;stroke-linejoin:bevel;stroke-opacity:1" />
    <g
       transform="matrix(2.74762,0,0,-2.74762,506.227,136.063)"
       font-size="11"
       font-weight="400"
       font-style="normal"
       id="g198"
       style="font-style:normal;font-weight:400;font-size:11px;font-family:Cantarell;fill:none;stroke:#ef2929;stroke-width:11.33860016;stroke-linecap:square;stroke-linejoin:bevel;stroke-opacity:1">
      <path
         d="M -26.9881,8.63409 7.01193,-15.3659"
         id="path196"
         inkscape:connector-curvature="0"
         style="vector-effect:non-scaling-stroke;fill-rule:evenodd" />
    </g>
    <g
       transform="matrix(2.74762,0,0,-2.74762,506.227,136.063)"
       font-size="11"
       font-weight="400"
       font-style="normal"
       id="g200"
       style="font-style:normal;font-weight:400;font-size:11px;font-family:Cantarell;fill:none;stroke:#000000;stroke-width:1;stroke-linecap:square;stroke-linejoin:bevel;stroke-opacity:1" />
    <g
       transform="matrix(0,2.74762,2.74762,0,552.787,112.999)"
       font-size="11"
       font-weight="400"
       font-style="normal"
       id="g202"
       style="font-style:normal;font-weight:400;font-size:11px;font-family:Cantarell;fill:none;stroke:#000000;stroke-width:1;stroke-linecap:square;stroke-linejoin:bevel;stroke-opacity:1" />
    <g
       transform="matrix(0,2.74762,2.74762,0,552.787,112.999)"
       font-size="11"
       font-weight="400"
       font-style="normal"
       id="g206"
       style="font-style:normal;font-weight:400;font-size:11px;font-family:Cantarell;fill:none;stroke:#ef2929;stroke-width:11.33860016;stroke-linecap:square;stroke-linejoin:bevel;stroke-opacity:1">
      <path
         d="m -6.98807,-15.3659 35.99997,-24"
         id="path204"
         inkscape:connector-curvature="0"
         style="vector-effect:non-scaling-stroke;fill-rule:evenodd" />
    </g>
    <g
       transform="matrix(0,2.74762,2.74762,0,552.787,112.999)"
       font-size="11"
       font-weight="400"
       font-style="normal"
       id="g208"
       style="font-style:normal;font-weight:400;font-size:11px;font-family:Cantarell;fill:none;stroke:#000000;stroke-width:1;stroke-linecap:square;stroke-linejoin:bevel;stroke-opacity:1" />
    <g
       transform="translate(-127,1)"
       font-size="11"
       font-weight="400"
       font-style="normal"
       id="g210"
       style="font-style:normal;font-weight:400;font-size:11px;font-family:Cantarell;fill:none;stroke:#000000;stroke-width:1;stroke-linecap:square;stroke-linejoin:bevel;stroke-opacity:1" />
  </g>
</svg>
